check_extrema.vcd
$date
	Sun Dec 10 17:04:09 2023
$end
$version
	Icarus Verilog
$end
$timescale
	1ps
$end
$scope module check_extrema_tb $end
$var wire 6 ! y [5:0] $end
$var wire 6 " x [5:0] $end
$var wire 1 # second_is_min $end
$var wire 1 $ second_is_max $end
$var wire 1 % second_is_extremum $end
$var wire 9 & second_data [8:0] $end
$var wire 12 ' second_address [11:0] $end
$var wire 6 ( read_y [5:0] $end
$var wire 6 ) read_x [5:0] $end
$var wire 1 * read $end
$var wire 3 + module_state [2:0] $end
$var wire 1 , first_is_min $end
$var wire 1 - first_is_max $end
$var wire 1 . first_is_extremum $end
$var wire 9 / first_data [8:0] $end
$var wire 12 0 first_address [11:0] $end
$var wire 1 1 done_checking $end
$var parameter 32 2 BIT_DEPTH $end
$var parameter 32 3 DIMENSION $end
$var reg 1 4 clk_in $end
$var reg 11 5 number_extrema [10:0] $end
$var reg 1 6 rst_in $end
$var reg 1 7 start_checking $end
$scope module finder $end
$var wire 1 4 clk $end
$var wire 1 7 enable $end
$var wire 1 6 rst_in $end
$var wire 9 8 second_data [8:0] $end
$var wire 12 9 second_address [11:0] $end
$var wire 1 : reader_done $end
$var wire 1 ; reader_busy $end
$var wire 9 < first_data [8:0] $end
$var wire 12 = first_address [11:0] $end
$var parameter 32 > ABS_CONTRAST_THRESHOLD $end
$var parameter 32 ? BIT_DEPTH $end
$var parameter 32 @ DIMENSION $end
$var reg 1 1 done_checking $end
$var reg 9 A first_bottom [8:0] $end
$var reg 9 B first_bottom_left [8:0] $end
$var reg 9 C first_bottom_right [8:0] $end
$var reg 1 . first_is_extremum $end
$var reg 1 - first_is_max $end
$var reg 1 , first_is_min $end
$var reg 9 D first_left [8:0] $end
$var reg 9 E first_middle [8:0] $end
$var reg 9 F first_right [8:0] $end
$var reg 9 G first_top [8:0] $end
$var reg 9 H first_top_left [8:0] $end
$var reg 9 I first_top_right [8:0] $end
$var reg 1 * read $end
$var reg 6 J read_x [5:0] $end
$var reg 6 K read_y [5:0] $end
$var reg 9 L second_bottom [8:0] $end
$var reg 9 M second_bottom_left [8:0] $end
$var reg 9 N second_bottom_right [8:0] $end
$var reg 1 % second_is_extremum $end
$var reg 1 $ second_is_max $end
$var reg 1 # second_is_min $end
$var reg 9 O second_left [8:0] $end
$var reg 9 P second_middle [8:0] $end
$var reg 9 Q second_right [8:0] $end
$var reg 9 R second_top [8:0] $end
$var reg 9 S second_top_left [8:0] $end
$var reg 9 T second_top_right [8:0] $end
$var reg 3 U state_number [2:0] $end
$var reg 6 V x [5:0] $end
$var reg 6 W y [5:0] $end
$var integer 32 X pixel_pos [31:0] $end
$var integer 32 Y state [31:0] $end
$scope module reader $end
$var wire 1 4 clk $end
$var wire 1 * input_ready $end
$var wire 1 6 rst_in $end
$var wire 6 Z x [5:0] $end
$var wire 6 [ y [5:0] $end
$var wire 9 \ second_data [8:0] $end
$var wire 9 ] first_data [8:0] $end
$var wire 12 ^ address [11:0] $end
$var parameter 32 _ BIT_DEPTH $end
$var parameter 32 ` DIMENSION $end
$var reg 1 ; busy $end
$var reg 2 a counter [1:0] $end
$var reg 1 : done $end
$var reg 12 b first_address [11:0] $end
$var reg 12 c second_address [11:0] $end
$var integer 32 d state [31:0] $end
$upscope $end
$upscope $end
$scope module first_bram $end
$var wire 12 e addra [11:0] $end
$var wire 1 4 clka $end
$var wire 9 f dina [8:0] $end
$var wire 1 g ena $end
$var wire 1 h regcea $end
$var wire 1 6 rsta $end
$var wire 1 i wea $end
$var wire 9 j douta [8:0] $end
$var parameter 152 k INIT_FILE $end
$var parameter 64 l RAM_DEPTH $end
$var parameter 128 m RAM_PERFORMANCE $end
$var parameter 32 n RAM_WIDTH $end
$var reg 9 o ram_data [8:0] $end
$scope function clogb2 $end
$var integer 32 p depth [31:0] $end
$upscope $end
$scope begin output_register $end
$var reg 9 q douta_reg [8:0] $end
$upscope $end
$scope begin use_init_file $end
$upscope $end
$upscope $end
$scope module second_bram $end
$var wire 12 r addra [11:0] $end
$var wire 1 4 clka $end
$var wire 9 s dina [8:0] $end
$var wire 1 t ena $end
$var wire 1 u regcea $end
$var wire 1 6 rsta $end
$var wire 1 v wea $end
$var wire 9 w douta [8:0] $end
$var parameter 160 x INIT_FILE $end
$var parameter 64 y RAM_DEPTH $end
$var parameter 128 z RAM_PERFORMANCE $end
$var parameter 32 { RAM_WIDTH $end
$var reg 9 | ram_data [8:0] $end
$scope function clogb2 $end
$var integer 32 } depth [31:0] $end
$upscope $end
$scope begin output_register $end
$var reg 9 ~ douta_reg [8:0] $end
$upscope $end
$scope begin use_init_file $end
$upscope $end
$upscope $end
$upscope $end
$enddefinitions $end
$comment Show the parameter values. $end
$dumpall
b1001 {
b1001000010010010100011101001000010111110101000001000101010100100100011001001111010100100100110101000001010011100100001101000101 z
b1000000000000 y
b111001101100101011000110110111101101110011001000101111101110100011001010111001101110100010111110110001001110010011000010110110100101110011011010110010101101101 x
b1001 n
b1001000010010010100011101001000010111110101000001000101010100100100011001001111010100100100110101000001010011100100001101000101 m
b1000000000000 l
b1100110011010010111001001110011011101000101111101110100011001010111001101110100010111110110001001110010011000010110110100101110011011010110010101101101 k
b1000000 `
b1001 _
b1000000 @
b1001 ?
b100 >
b1000000 3
b1001 2
$end
#0
$dumpvars
b0 ~
bx }
b0 |
b0 w
0v
1u
1t
b0 s
bx r
b0 q
bx p
b0 o
b0 j
0i
1h
1g
b0 f
bx e
b0 d
bx c
bx b
bx a
bx ^
b0 ]
b0 \
bx [
bx Z
b0 Y
b0 X
bx W
bx V
b0 U
bx T
bx S
bx R
bx Q
bx P
bx O
bx N
bx M
bx L
bx K
bx J
bx I
bx H
bx G
bx F
bx E
bx D
bx C
bx B
bx A
bx =
b0 <
x;
x:
bx 9
b0 8
x7
06
b0 5
04
x1
bx 0
b0 /
x.
x-
x,
b0 +
x*
bx )
bx (
bx '
b0 &
x%
x$
x#
bx "
bx !
$end
#5000
0:
01
0*
bx o
bx |
14
#10000
04
16
#15000
b1 !
b1 W
b1 "
b1 V
0%
0.
b1001 X
b0 a
14
#20000
04
06
#25000
bx /
bx <
bx ]
bx j
bx q
bx &
bx 8
bx \
bx w
bx ~
14
#30000
04
17
#35000
b1 +
b1 U
b1 Y
14
#40000
04
07
#45000
b1 ^
b0 (
b0 K
b0 [
b1 )
b1 J
b1 Z
1*
b0 X
14
#50000
04
#55000
0*
1;
b1 '
b1 9
b1 c
b1 r
b1 0
b1 =
b1 b
b1 e
b1 d
14
#60000
04
#65000
b1 a
b10011010 o
b1010111 |
14
#70000
04
#75000
b1010111 &
b1010111 8
b1010111 \
b1010111 w
b1010111 ~
b10011010 /
b10011010 <
b10011010 ]
b10011010 j
b10011010 q
b10 a
14
#80000
04
#85000
0;
1:
b0 d
14
#90000
04
#95000
b10 ^
b10 )
b10 J
b10 Z
1*
b1 X
b1010111 R
b10011010 G
0:
14
#100000
04
#105000
1;
b0 a
b10 '
b10 9
b10 c
b10 r
b10 0
b10 =
b10 b
b10 e
b1 d
0*
14
#110000
04
#115000
b11011100 |
b11110 o
b1 a
14
#120000
04
#125000
b10 a
b11110 /
b11110 <
b11110 ]
b11110 j
b11110 q
b11011100 &
b11011100 8
b11011100 \
b11011100 w
b11011100 ~
14
#130000
04
#135000
0;
1:
b0 d
14
#140000
04
#145000
b1000010 ^
b1 (
b1 K
b1 [
0:
1*
b110 X
b11011100 T
b11110 I
14
#150000
04
#155000
0*
1;
b0 a
b1000010 '
b1000010 9
b1000010 c
b1000010 r
b1000010 0
b1000010 =
b1000010 b
b1000010 e
b1 d
14
#160000
04
#165000
b1 a
bx o
bx |
14
#170000
04
#175000
bx &
bx 8
bx \
bx w
bx ~
bx /
bx <
bx ]
bx j
bx q
b10 a
14
#180000
04
#185000
0;
1:
b0 d
14
#190000
04
#195000
b10000010 ^
b10 (
b10 K
b10 [
1*
b100 X
0:
14
#200000
04
#205000
1;
b0 a
b10000010 '
b10000010 9
b10000010 c
b10000010 r
b10000010 0
b10000010 =
b10000010 b
b10000010 e
b1 d
0*
14
#210000
04
#215000
b1 a
14
#220000
04
#225000
b10 a
14
#230000
04
#235000
0;
1:
b0 d
14
#240000
04
#245000
b10000001 ^
b1 )
b1 J
b1 Z
0:
1*
b11 X
14
#250000
04
#255000
0*
1;
b0 a
b10000001 '
b10000001 9
b10000001 c
b10000001 r
b10000001 0
b10000001 =
b10000001 b
b10000001 e
b1 d
14
#260000
04
#265000
b1 a
14
#270000
04
#275000
b10 a
14
#280000
04
#285000
0;
1:
b0 d
14
#290000
04
#295000
b10000000 ^
b0 )
b0 J
b0 Z
1*
b101 X
0:
14
#300000
04
#305000
1;
b0 a
b10000000 '
b10000000 9
b10000000 c
b10000000 r
b10000000 0
b10000000 =
b10000000 b
b10000000 e
b1 d
0*
14
#310000
04
#315000
b1 a
14
#320000
04
#325000
b10 a
14
#330000
04
#335000
0;
1:
b0 d
14
#340000
04
#345000
b1000000 ^
b1 (
b1 K
b1 [
0:
1*
b111 X
14
#350000
04
#355000
0*
1;
b0 a
b1000000 '
b1000000 9
b1000000 c
b1000000 r
b1000000 0
b1000000 =
b1000000 b
b1000000 e
b1 d
14
#360000
04
#365000
b1 a
14
#370000
04
#375000
b10 a
14
#380000
04
#385000
0;
1:
b0 d
14
#390000
04
#395000
b0 ^
b0 (
b0 K
b0 [
1*
b10 X
0:
14
#400000
04
#405000
1;
b0 a
b0 '
b0 9
b0 c
b0 r
b0 0
b0 =
b0 b
b0 e
b1 d
0*
14
#410000
04
#415000
b10111111 |
b11101101 o
b1 a
14
#420000
04
#425000
b10 a
b11101101 /
b11101101 <
b11101101 ]
b11101101 j
b11101101 q
b10111111 &
b10111111 8
b10111111 \
b10111111 w
b10111111 ~
14
#430000
04
#435000
0;
1:
b0 d
14
#440000
04
#445000
b1000001 ^
b1 (
b1 K
b1 [
b1 )
b1 J
b1 Z
0:
1*
b1000 X
b10111111 S
b11101101 H
14
#450000
04
#455000
0*
1;
b0 a
b1000001 '
b1000001 9
b1000001 c
b1000001 r
b1000001 0
b1000001 =
b1000001 b
b1000001 e
b1 d
14
#460000
04
#465000
b1 a
bx o
bx |
14
#470000
04
#475000
bx &
bx 8
bx \
bx w
bx ~
bx /
bx <
bx ]
bx j
bx q
b10 a
14
#480000
04
#485000
0;
1:
b0 d
14
#490000
04
#495000
b10 +
b10 U
b10 Y
b1001 X
0:
14
#500000
04
#505000
b11 +
b11 U
b11 Y
14
#510000
04
#515000
b100 +
b100 U
b100 Y
b10 "
b10 V
14
#520000
04
#525000
b11 ^
b0 (
b0 K
b0 [
b11 )
b11 J
b11 Z
1*
b1 X
b11011100 R
b1010111 S
b11110 G
b10011010 H
14
#530000
04
#535000
0*
1;
b0 a
b11 '
b11 9
b11 c
b11 r
b11 0
b11 =
b11 b
b11 e
b1 d
14
#540000
04
#545000
b1 a
b1110011 o
b10100011 |
14
#550000
04
#555000
b10100011 &
b10100011 8
b10100011 \
b10100011 w
b10100011 ~
b1110011 /
b1110011 <
b1110011 ]
b1110011 j
b1110011 q
b10 a
14
#560000
04
#565000
0;
1:
b0 d
14
#570000
04
#575000
b1000011 ^
b1 (
b1 K
b1 [
1*
b110 X
b10100011 T
b1110011 I
0:
14
#580000
04
#585000
1;
b0 a
b1000011 '
b1000011 9
b1000011 c
b1000011 r
b1000011 0
b1000011 =
b1000011 b
b1000011 e
b1 d
0*
14
#590000
04
#595000
bx |
bx o
b1 a
14
#600000
04
#605000
b10 a
bx /
bx <
bx ]
bx j
bx q
bx &
bx 8
bx \
bx w
bx ~
14
#610000
04
#615000
0;
1:
b0 d
14
#620000
04
#625000
b10000011 ^
b10 (
b10 K
b10 [
0:
1*
b100 X
14
#630000
04
#635000
0*
1;
b0 a
b10000011 '
b10000011 9
b10000011 c
b10000011 r
b10000011 0
b10000011 =
b10000011 b
b10000011 e
b1 d
14
#640000
04
#645000
b1 a
14
#650000
04
#655000
b10 a
14
#660000
04
#665000
0;
1:
b0 d
14
#670000
04
#675000
b10 +
b10 U
b10 Y
b1001 X
0:
14
#680000
04
#685000
b11 +
b11 U
b11 Y
14
#690000
04
#695000
b100 +
b100 U
b100 Y
b11 "
b11 V
14
#700000
04
#705000
b100 ^
b0 (
b0 K
b0 [
b100 )
b100 J
b100 Z
1*
b1 X
b10100011 R
b11011100 S
b1110011 G
b11110 H
14
#710000
04
#715000
0*
1;
b0 a
b100 '
b100 9
b100 c
b100 r
b100 0
b100 =
b100 b
b100 e
b1 d
14
#720000
04
#725000
b1 a
b11110000 o
b11110000 |
14
#730000
04
#735000
b11110000 &
b11110000 8
b11110000 \
b11110000 w
b11110000 ~
b11110000 /
b11110000 <
b11110000 ]
b11110000 j
b11110000 q
b10 a
14
#740000
04
#745000
0;
1:
b0 d
14
#750000
04
#755000
b1000100 ^
b1 (
b1 K
b1 [
1*
b110 X
b11110000 T
b11110000 I
0:
14
#760000
04
#765000
1;
b0 a
b1000100 '
b1000100 9
b1000100 c
b1000100 r
b1000100 0
b1000100 =
b1000100 b
b1000100 e
b1 d
0*
14
#770000
04
#775000
bx |
bx o
b1 a
14
#780000
04
#785000
b10 a
bx /
bx <
bx ]
bx j
bx q
bx &
bx 8
bx \
bx w
bx ~
14
#790000
04
#795000
0;
1:
b0 d
14
#800000
04
#805000
b10000100 ^
b10 (
b10 K
b10 [
0:
1*
b100 X
14
#810000
04
#815000
0*
1;
b0 a
b10000100 '
b10000100 9
b10000100 c
b10000100 r
b10000100 0
b10000100 =
b10000100 b
b10000100 e
b1 d
14
#820000
04
#825000
b1 a
14
#830000
04
#835000
b10 a
14
#840000
04
#845000
0;
1:
b0 d
14
#850000
04
#855000
b10 +
b10 U
b10 Y
b1001 X
0:
14
#860000
04
#865000
b11 +
b11 U
b11 Y
14
#870000
04
#875000
b100 +
b100 U
b100 Y
b100 "
b100 V
14
#880000
04
#885000
b101 ^
b0 (
b0 K
b0 [
b101 )
b101 J
b101 Z
1*
b1 X
b11110000 R
b10100011 S
b11110000 G
b1110011 H
14
#890000
04
#895000
0*
1;
b0 a
b101 '
b101 9
b101 c
b101 r
b101 0
b101 =
b101 b
b101 e
b1 d
14
#900000
04
#905000
b1 a
b111101 o
b1000110 |
14
#910000
04
#915000
b1000110 &
b1000110 8
b1000110 \
b1000110 w
b1000110 ~
b111101 /
b111101 <
b111101 ]
b111101 j
b111101 q
b10 a
14
#920000
04
#925000
0;
1:
b0 d
14
#930000
04
#935000
b1000101 ^
b1 (
b1 K
b1 [
1*
b110 X
b1000110 T
b111101 I
0:
14
#940000
04
#945000
1;
b0 a
b1000101 '
b1000101 9
b1000101 c
b1000101 r
b1000101 0
b1000101 =
b1000101 b
b1000101 e
b1 d
0*
14
#950000
04
#955000
bx |
bx o
b1 a
14
#960000
04
#965000
b10 a
bx /
bx <
bx ]
bx j
bx q
bx &
bx 8
bx \
bx w
bx ~
14
#970000
04
#975000
0;
1:
b0 d
14
#980000
04
#985000
b10000101 ^
b10 (
b10 K
b10 [
0:
1*
b100 X
14
#990000
04
#995000
0*
1;
b0 a
b10000101 '
b10000101 9
b10000101 c
b10000101 r
b10000101 0
b10000101 =
b10000101 b
b10000101 e
b1 d
14
#1000000
04
#1005000
b1 a
14
#1010000
04
#1015000
b10 a
14
#1020000
04
#1025000
0;
1:
b0 d
14
#1030000
04
#1035000
b10 +
b10 U
b10 Y
b1001 X
0:
14
#1040000
04
#1045000
b11 +
b11 U
b11 Y
14
#1050000
04
#1055000
b100 +
b100 U
b100 Y
b101 "
b101 V
14
#1060000
04
#1065000
b110 ^
b0 (
b0 K
b0 [
b110 )
b110 J
b110 Z
1*
b1 X
b1000110 R
b11110000 S
b111101 G
b11110000 H
14
#1070000
04
#1075000
0*
1;
b0 a
b110 '
b110 9
b110 c
b110 r
b110 0
b110 =
b110 b
b110 e
b1 d
14
#1080000
04
#1085000
b1 a
b1001 o
b11110011 |
14
#1090000
04
#1095000
b11110011 &
b11110011 8
b11110011 \
b11110011 w
b11110011 ~
b1001 /
b1001 <
b1001 ]
b1001 j
b1001 q
b10 a
14
#1100000
04
#1105000
0;
1:
b0 d
14
#1110000
04
#1115000
b1000110 ^
b1 (
b1 K
b1 [
1*
b110 X
b11110011 T
b1001 I
0:
14
#1120000
04
#1125000
1;
b0 a
b1000110 '
b1000110 9
b1000110 c
b1000110 r
b1000110 0
b1000110 =
b1000110 b
b1000110 e
b1 d
0*
14
#1130000
04
#1135000
bx |
bx o
b1 a
14
#1140000
04
#1145000
b10 a
bx /
bx <
bx ]
bx j
bx q
bx &
bx 8
bx \
bx w
bx ~
14
#1150000
04
#1155000
0;
1:
b0 d
14
#1160000
04
#1165000
b10000110 ^
b10 (
b10 K
b10 [
0:
1*
b100 X
14
#1170000
04
#1175000
0*
1;
b0 a
b10000110 '
b10000110 9
b10000110 c
b10000110 r
b10000110 0
b10000110 =
b10000110 b
b10000110 e
b1 d
14
#1180000
04
#1185000
b1 a
14
#1190000
04
#1195000
b10 a
14
#1200000
04
#1205000
0;
1:
b0 d
14
#1210000
04
#1215000
b10 +
b10 U
b10 Y
b1001 X
0:
14
#1220000
04
#1225000
b11 +
b11 U
b11 Y
14
#1230000
04
#1235000
b100 +
b100 U
b100 Y
b110 "
b110 V
14
#1240000
04
#1245000
b111 ^
b0 (
b0 K
b0 [
b111 )
b111 J
b111 Z
1*
b1 X
b11110011 R
b1000110 S
b1001 G
b111101 H
14
#1250000
04
#1255000
0*
1;
b0 a
b111 '
b111 9
b111 c
b111 r
b111 0
b111 =
b111 b
b111 e
b1 d
14
#1260000
04
#1265000
b1 a
b11111001 o
b1001011 |
14
#1270000
04
#1275000
b1001011 &
b1001011 8
b1001011 \
b1001011 w
b1001011 ~
b11111001 /
b11111001 <
b11111001 ]
b11111001 j
b11111001 q
b10 a
14
#1280000
04
#1285000
0;
1:
b0 d
14
#1290000
04
#1295000
b1000111 ^
b1 (
b1 K
b1 [
1*
b110 X
b1001011 T
b11111001 I
0:
14
#1300000
04
#1305000
1;
b0 a
b1000111 '
b1000111 9
b1000111 c
b1000111 r
b1000111 0
b1000111 =
b1000111 b
b1000111 e
b1 d
0*
14
#1310000
04
#1315000
bx |
bx o
b1 a
14
#1320000
04
#1325000
b10 a
bx /
bx <
bx ]
bx j
bx q
bx &
bx 8
bx \
bx w
bx ~
14
#1330000
04
#1335000
0;
1:
b0 d
14
#1340000
04
#1345000
b10000111 ^
b10 (
b10 K
b10 [
0:
1*
b100 X
14
#1350000
04
#1355000
0*
1;
b0 a
b10000111 '
b10000111 9
b10000111 c
b10000111 r
b10000111 0
b10000111 =
b10000111 b
b10000111 e
b1 d
14
#1360000
04
#1365000
b1 a
14
#1370000
04
#1375000
b10 a
14
#1380000
04
#1385000
0;
1:
b0 d
14
#1390000
04
#1395000
b10 +
b10 U
b10 Y
b1001 X
0:
14
#1400000
04
#1405000
b11 +
b11 U
b11 Y
14
#1410000
04
#1415000
b100 +
b100 U
b100 Y
b111 "
b111 V
14
#1420000
04
#1425000
b1000 ^
b0 (
b0 K
b0 [
b1000 )
b1000 J
b1000 Z
1*
b1 X
b1001011 R
b11110011 S
b11111001 G
b1001 H
14
#1430000
04
#1435000
0*
1;
b0 a
b1000 '
b1000 9
b1000 c
b1000 r
b1000 0
b1000 =
b1000 b
b1000 e
b1 d
14
#1440000
04
#1445000
b1 a
b11111 o
b10111 |
14
#1450000
04
#1455000
b10111 &
b10111 8
b10111 \
b10111 w
b10111 ~
b11111 /
b11111 <
b11111 ]
b11111 j
b11111 q
b10 a
14
#1460000
04
#1465000
0;
1:
b0 d
14
#1470000
04
#1475000
b1001000 ^
b1 (
b1 K
b1 [
1*
b110 X
b10111 T
b11111 I
0:
14
#1480000
04
#1485000
1;
b0 a
b1001000 '
b1001000 9
b1001000 c
b1001000 r
b1001000 0
b1001000 =
b1001000 b
b1001000 e
b1 d
0*
14
#1490000
04
#1495000
bx |
bx o
b1 a
14
#1500000
04
#1505000
b10 a
bx /
bx <
bx ]
bx j
bx q
bx &
bx 8
bx \
bx w
bx ~
14
#1510000
04
#1515000
0;
1:
b0 d
14
#1520000
04
#1525000
b10001000 ^
b10 (
b10 K
b10 [
0:
1*
b100 X
14
#1530000
04
#1535000
0*
1;
b0 a
b10001000 '
b10001000 9
b10001000 c
b10001000 r
b10001000 0
b10001000 =
b10001000 b
b10001000 e
b1 d
14
#1540000
04
#1545000
b1 a
14
#1550000
04
#1555000
b10 a
14
#1560000
04
#1565000
0;
1:
b0 d
14
#1570000
04
#1575000
b10 +
b10 U
b10 Y
b1001 X
0:
14
#1580000
04
#1585000
b11 +
b11 U
b11 Y
14
#1590000
04
#1595000
b100 +
b100 U
b100 Y
b1000 "
b1000 V
14
#1600000
04
#1605000
b1001 ^
b0 (
b0 K
b0 [
b1001 )
b1001 J
b1001 Z
1*
b1 X
b10111 R
b1001011 S
b11111 G
b11111001 H
14
#1610000
04
#1615000
0*
1;
b0 a
b1001 '
b1001 9
b1001 c
b1001 r
b1001 0
b1001 =
b1001 b
b1001 e
b1 d
14
#1620000
04
#1625000
b1 a
b1001101 o
b11001101 |
14
#1630000
04
#1635000
b11001101 &
b11001101 8
b11001101 \
b11001101 w
b11001101 ~
b1001101 /
b1001101 <
b1001101 ]
b1001101 j
b1001101 q
b10 a
14
#1640000
04
#1645000
0;
1:
b0 d
14
#1650000
04
#1655000
b1001001 ^
b1 (
b1 K
b1 [
1*
b110 X
b11001101 T
b1001101 I
0:
14
#1660000
04
#1665000
1;
b0 a
b1001001 '
b1001001 9
b1001001 c
b1001001 r
b1001001 0
b1001001 =
b1001001 b
b1001001 e
b1 d
0*
14
#1670000
04
#1675000
bx |
bx o
b1 a
14
#1680000
04
#1685000
b10 a
bx /
bx <
bx ]
bx j
bx q
bx &
bx 8
bx \
bx w
bx ~
14
#1690000
04
#1695000
0;
1:
b0 d
14
#1700000
04
#1705000
b10001001 ^
b10 (
b10 K
b10 [
0:
1*
b100 X
14
#1710000
04
#1715000
0*
1;
b0 a
b10001001 '
b10001001 9
b10001001 c
b10001001 r
b10001001 0
b10001001 =
b10001001 b
b10001001 e
b1 d
14
#1720000
04
#1725000
b1 a
14
#1730000
04
#1735000
b10 a
14
#1740000
04
#1745000
0;
1:
b0 d
14
#1750000
04
#1755000
b10 +
b10 U
b10 Y
b1001 X
0:
14
#1760000
04
#1765000
b11 +
b11 U
b11 Y
14
#1770000
04
#1775000
b100 +
b100 U
b100 Y
b1001 "
b1001 V
14
#1780000
04
#1785000
b1010 ^
b0 (
b0 K
b0 [
b1010 )
b1010 J
b1010 Z
1*
b1 X
b11001101 R
b10111 S
b1001101 G
b11111 H
14
#1790000
04
#1795000
0*
1;
b0 a
b1010 '
b1010 9
b1010 c
b1010 r
b1010 0
b1010 =
b1010 b
b1010 e
b1 d
14
#1800000
04
#1805000
b1 a
b1011100 o
b11000110 |
14
#1810000
04
#1815000
b11000110 &
b11000110 8
b11000110 \
b11000110 w
b11000110 ~
b1011100 /
b1011100 <
b1011100 ]
b1011100 j
b1011100 q
b10 a
14
#1820000
04
#1825000
0;
1:
b0 d
14
#1830000
04
#1835000
b1001010 ^
b1 (
b1 K
b1 [
1*
b110 X
b11000110 T
b1011100 I
0:
14
#1840000
04
#1845000
1;
b0 a
b1001010 '
b1001010 9
b1001010 c
b1001010 r
b1001010 0
b1001010 =
b1001010 b
b1001010 e
b1 d
0*
14
#1850000
04
#1855000
bx |
bx o
b1 a
14
#1860000
04
#1865000
b10 a
bx /
bx <
bx ]
bx j
bx q
bx &
bx 8
bx \
bx w
bx ~
14
#1870000
04
#1875000
0;
1:
b0 d
14
#1880000
04
#1885000
b10001010 ^
b10 (
b10 K
b10 [
0:
1*
b100 X
14
#1890000
04
#1895000
0*
1;
b0 a
b10001010 '
b10001010 9
b10001010 c
b10001010 r
b10001010 0
b10001010 =
b10001010 b
b10001010 e
b1 d
14
#1900000
04
#1905000
b1 a
14
#1910000
04
#1915000
b10 a
14
#1920000
04
#1925000
0;
1:
b0 d
14
#1930000
04
#1935000
b10 +
b10 U
b10 Y
b1001 X
0:
14
#1940000
04
#1945000
b11 +
b11 U
b11 Y
14
#1950000
04
#1955000
b100 +
b100 U
b100 Y
b1010 "
b1010 V
14
#1960000
04
#1965000
b1011 ^
b0 (
b0 K
b0 [
b1011 )
b1011 J
b1011 Z
1*
b1 X
b11000110 R
b11001101 S
b1011100 G
b1001101 H
14
#1970000
04
#1975000
0*
1;
b0 a
b1011 '
b1011 9
b1011 c
b1011 r
b1011 0
b1011 =
b1011 b
b1011 e
b1 d
14
#1980000
04
#1985000
b1 a
b10011101 o
b11001 |
14
#1990000
04
#1995000
b11001 &
b11001 8
b11001 \
b11001 w
b11001 ~
b10011101 /
b10011101 <
b10011101 ]
b10011101 j
b10011101 q
b10 a
14
#2000000
04
#2005000
0;
1:
b0 d
14
#2010000
04
#2015000
b1001011 ^
b1 (
b1 K
b1 [
1*
b110 X
b11001 T
b10011101 I
0:
14
#2020000
04
#2025000
1;
b0 a
b1001011 '
b1001011 9
b1001011 c
b1001011 r
b1001011 0
b1001011 =
b1001011 b
b1001011 e
b1 d
0*
14
#2030000
04
#2035000
bx |
bx o
b1 a
14
#2040000
04
#2045000
b10 a
bx /
bx <
bx ]
bx j
bx q
bx &
bx 8
bx \
bx w
bx ~
14
#2050000
04
#2055000
0;
1:
b0 d
14
#2060000
04
#2065000
b10001011 ^
b10 (
b10 K
b10 [
0:
1*
b100 X
14
#2070000
04
#2075000
0*
1;
b0 a
b10001011 '
b10001011 9
b10001011 c
b10001011 r
b10001011 0
b10001011 =
b10001011 b
b10001011 e
b1 d
14
#2080000
04
#2085000
b1 a
14
#2090000
04
#2095000
b10 a
14
#2100000
04
#2105000
0;
1:
b0 d
14
#2110000
04
#2115000
b10 +
b10 U
b10 Y
b1001 X
0:
14
#2120000
04
#2125000
b11 +
b11 U
b11 Y
14
#2130000
04
#2135000
b100 +
b100 U
b100 Y
b1011 "
b1011 V
14
#2140000
04
#2145000
b1100 ^
b0 (
b0 K
b0 [
b1100 )
b1100 J
b1100 Z
1*
b1 X
b11001 R
b11000110 S
b10011101 G
b1011100 H
14
#2150000
04
#2155000
0*
1;
b0 a
b1100 '
b1100 9
b1100 c
b1100 r
b1100 0
b1100 =
b1100 b
b1100 e
b1 d
14
#2160000
04
#2165000
b1 a
b11011110 o
b10001110 |
14
#2170000
04
#2175000
b10001110 &
b10001110 8
b10001110 \
b10001110 w
b10001110 ~
b11011110 /
b11011110 <
b11011110 ]
b11011110 j
b11011110 q
b10 a
14
#2180000
04
#2185000
0;
1:
b0 d
14
#2190000
04
#2195000
b1001100 ^
b1 (
b1 K
b1 [
1*
b110 X
b10001110 T
b11011110 I
0:
14
#2200000
04
#2205000
1;
b0 a
b1001100 '
b1001100 9
b1001100 c
b1001100 r
b1001100 0
b1001100 =
b1001100 b
b1001100 e
b1 d
0*
14
#2210000
04
#2215000
bx |
bx o
b1 a
14
#2220000
04
#2225000
b10 a
bx /
bx <
bx ]
bx j
bx q
bx &
bx 8
bx \
bx w
bx ~
14
#2230000
04
#2235000
0;
1:
b0 d
14
#2240000
04
#2245000
b10001100 ^
b10 (
b10 K
b10 [
0:
1*
b100 X
14
#2250000
04
#2255000
0*
1;
b0 a
b10001100 '
b10001100 9
b10001100 c
b10001100 r
b10001100 0
b10001100 =
b10001100 b
b10001100 e
b1 d
14
#2260000
04
#2265000
b1 a
14
#2270000
04
#2275000
b10 a
14
#2280000
04
#2285000
0;
1:
b0 d
14
#2290000
04
#2295000
b10 +
b10 U
b10 Y
b1001 X
0:
14
#2300000
04
#2305000
b11 +
b11 U
b11 Y
14
#2310000
04
#2315000
b100 +
b100 U
b100 Y
b1100 "
b1100 V
14
#2320000
04
#2325000
b1101 ^
b0 (
b0 K
b0 [
b1101 )
b1101 J
b1101 Z
1*
b1 X
b10001110 R
b11001 S
b11011110 G
b10011101 H
14
#2330000
04
#2335000
0*
1;
b0 a
b1101 '
b1101 9
b1101 c
b1101 r
b1101 0
b1101 =
b1101 b
b1101 e
b1 d
14
#2340000
04
#2345000
b1 a
b100101 o
b10010011 |
14
#2350000
04
#2355000
b10010011 &
b10010011 8
b10010011 \
b10010011 w
b10010011 ~
b100101 /
b100101 <
b100101 ]
b100101 j
b100101 q
b10 a
14
#2360000
04
#2365000
0;
1:
b0 d
14
#2370000
04
#2375000
b1001101 ^
b1 (
b1 K
b1 [
1*
b110 X
b10010011 T
b100101 I
0:
14
#2380000
04
#2385000
1;
b0 a
b1001101 '
b1001101 9
b1001101 c
b1001101 r
b1001101 0
b1001101 =
b1001101 b
b1001101 e
b1 d
0*
14
#2390000
04
#2395000
bx |
bx o
b1 a
14
#2400000
04
#2405000
b10 a
bx /
bx <
bx ]
bx j
bx q
bx &
bx 8
bx \
bx w
bx ~
14
#2410000
04
#2415000
0;
1:
b0 d
14
#2420000
04
#2425000
b10001101 ^
b10 (
b10 K
b10 [
0:
1*
b100 X
14
#2430000
04
#2435000
0*
1;
b0 a
b10001101 '
b10001101 9
b10001101 c
b10001101 r
b10001101 0
b10001101 =
b10001101 b
b10001101 e
b1 d
14
#2440000
04
#2445000
b1 a
14
#2450000
04
#2455000
b10 a
14
#2460000
04
#2465000
0;
1:
b0 d
14
#2470000
04
#2475000
b10 +
b10 U
b10 Y
b1001 X
0:
14
#2480000
04
#2485000
b11 +
b11 U
b11 Y
14
#2490000
04
#2495000
b100 +
b100 U
b100 Y
b1101 "
b1101 V
14
#2500000
04
#2505000
b1110 ^
b0 (
b0 K
b0 [
b1110 )
b1110 J
b1110 Z
1*
b1 X
b10010011 R
b10001110 S
b100101 G
b11011110 H
14
#2510000
04
