check_extrema.vcd
$date
	Sun Dec 10 10:44:37 2023
$end
$version
	Icarus Verilog
$end
$timescale
	1ps
$end
$scope module check_extrema_tb $end
$var wire 3 ! y [2:0] $end
$var wire 3 " x [2:0] $end
$var wire 1 # second_is_min $end
$var wire 1 $ second_is_max $end
$var wire 1 % second_is_extremum $end
$var wire 9 & second_data [8:0] $end
$var wire 5 ' second_address [4:0] $end
$var wire 3 ( read_y [2:0] $end
$var wire 3 ) read_x [2:0] $end
$var wire 1 * read $end
$var wire 3 + module_state [2:0] $end
$var wire 1 , first_is_min $end
$var wire 1 - first_is_max $end
$var wire 1 . first_is_extremum $end
$var wire 9 / first_data [8:0] $end
$var wire 5 0 first_address [4:0] $end
$var wire 1 1 done_checking $end
$var parameter 32 2 BIT_DEPTH $end
$var parameter 32 3 DIMENSION $end
$var reg 1 4 clk_in $end
$var reg 1 5 rst_in $end
$var reg 1 6 start_checking $end
$scope module finder $end
$var wire 1 4 clk $end
$var wire 1 6 enable $end
$var wire 1 5 rst_in $end
$var wire 9 7 second_data [8:0] $end
$var wire 5 8 second_address [4:0] $end
$var wire 1 9 reader_done $end
$var wire 1 : reader_busy $end
$var wire 9 ; first_data [8:0] $end
$var wire 5 < first_address [4:0] $end
$var parameter 32 = ABS_CONTRAST_THRESHOLD $end
$var parameter 32 > BIT_DEPTH $end
$var parameter 32 ? DIMENSION $end
$var reg 1 1 done_checking $end
$var reg 9 @ first_bottom [8:0] $end
$var reg 9 A first_bottom_left [8:0] $end
$var reg 9 B first_bottom_right [8:0] $end
$var reg 1 . first_is_extremum $end
$var reg 1 - first_is_max $end
$var reg 1 , first_is_min $end
$var reg 9 C first_left [8:0] $end
$var reg 9 D first_middle [8:0] $end
$var reg 9 E first_right [8:0] $end
$var reg 9 F first_top [8:0] $end
$var reg 9 G first_top_left [8:0] $end
$var reg 9 H first_top_right [8:0] $end
$var reg 1 * read $end
$var reg 3 I read_x [2:0] $end
$var reg 3 J read_y [2:0] $end
$var reg 9 K second_bottom [8:0] $end
$var reg 9 L second_bottom_left [8:0] $end
$var reg 9 M second_bottom_right [8:0] $end
$var reg 1 % second_is_extremum $end
$var reg 1 $ second_is_max $end
$var reg 1 # second_is_min $end
$var reg 9 N second_left [8:0] $end
$var reg 9 O second_middle [8:0] $end
$var reg 9 P second_right [8:0] $end
$var reg 9 Q second_top [8:0] $end
$var reg 9 R second_top_left [8:0] $end
$var reg 9 S second_top_right [8:0] $end
$var reg 3 T state_number [2:0] $end
$var reg 3 U x [2:0] $end
$var reg 3 V y [2:0] $end
$var integer 32 W pixel_pos [31:0] $end
$var integer 32 X state [31:0] $end
$scope module reader $end
$var wire 1 4 clk $end
$var wire 1 * input_ready $end
$var wire 1 5 rst_in $end
$var wire 3 Y x [2:0] $end
$var wire 3 Z y [2:0] $end
$var wire 9 [ second_data [8:0] $end
$var wire 9 \ first_data [8:0] $end
$var wire 5 ] address [4:0] $end
$var parameter 32 ^ BIT_DEPTH $end
$var parameter 32 _ DIMENSION $end
$var reg 1 : busy $end
$var reg 2 ` counter [1:0] $end
$var reg 1 9 done $end
$var reg 5 a first_address [4:0] $end
$var reg 5 b second_address [4:0] $end
$var integer 32 c state [31:0] $end
$upscope $end
$upscope $end
$scope module first_bram $end
$var wire 5 d addra [4:0] $end
$var wire 1 4 clka $end
$var wire 9 e dina [8:0] $end
$var wire 1 f ena $end
$var wire 1 g regcea $end
$var wire 1 5 rsta $end
$var wire 1 h wea $end
$var wire 9 i douta [8:0] $end
$var parameter 152 j INIT_FILE $end
$var parameter 32 k RAM_DEPTH $end
$var parameter 128 l RAM_PERFORMANCE $end
$var parameter 32 m RAM_WIDTH $end
$var reg 9 n ram_data [8:0] $end
$scope function clogb2 $end
$var integer 32 o depth [31:0] $end
$upscope $end
$scope begin output_register $end
$var reg 9 p douta_reg [8:0] $end
$upscope $end
$scope begin use_init_file $end
$upscope $end
$upscope $end
$scope module second_bram $end
$var wire 5 q addra [4:0] $end
$var wire 1 4 clka $end
$var wire 9 r dina [8:0] $end
$var wire 1 s ena $end
$var wire 1 t regcea $end
$var wire 1 5 rsta $end
$var wire 1 u wea $end
$var wire 9 v douta [8:0] $end
$var parameter 160 w INIT_FILE $end
$var parameter 32 x RAM_DEPTH $end
$var parameter 128 y RAM_PERFORMANCE $end
$var parameter 32 z RAM_WIDTH $end
$var reg 9 { ram_data [8:0] $end
$scope function clogb2 $end
$var integer 32 | depth [31:0] $end
$upscope $end
$scope begin output_register $end
$var reg 9 } douta_reg [8:0] $end
$upscope $end
$scope begin use_init_file $end
$upscope $end
$upscope $end
$upscope $end
$enddefinitions $end
$comment Show the parameter values. $end
$dumpall
b1001 z
b1001000010010010100011101001000010111110101000001000101010100100100011001001111010100100100110101000001010011100100001101000101 y
b11001 x
b111001101100101011000110110111101101110011001000101111101110100011001010111001101110100010111110110001001110010011000010110110100101110011011010110010101101101 w
b1001 m
b1001000010010010100011101001000010111110101000001000101010100100100011001001111010100100100110101000001010011100100001101000101 l
b11001 k
b1100110011010010111001001110011011101000101111101110100011001010111001101110100010111110110001001110010011000010110110100101110011011010110010101101101 j
b101 _
b1001 ^
b101 ?
b1001 >
b100 =
b101 3
b1001 2
$end
#0
$dumpvars
b0 }
bx |
b0 {
b0 v
0u
1t
1s
b0 r
bx q
b0 p
bx o
b0 n
b0 i
0h
1g
1f
b0 e
bx d
b0 c
bx b
bx a
bx `
bx ]
b0 \
b0 [
bx Z
bx Y
b0 X
b0 W
bx V
bx U
b0 T
bx S
bx R
bx Q
bx P
bx O
bx N
bx M
bx L
bx K
bx J
bx I
bx H
bx G
bx F
bx E
bx D
bx C
bx B
bx A
bx @
bx <
b0 ;
x:
x9
bx 8
b0 7
x6
05
04
x1
bx 0
b0 /
x.
x-
x,
b0 +
x*
bx )
bx (
bx '
b0 &
x%
x$
x#
bx "
bx !
$end
#5000
09
01
0*
bx n
bx {
14
#10000
04
15
#15000
b1 !
b1 V
b1 "
b1 U
0%
0.
b1001 W
b0 `
14
#20000
04
05
#25000
bx /
bx ;
bx \
bx i
bx p
bx &
bx 7
bx [
bx v
bx }
14
#30000
04
16
#35000
b1 +
b1 T
b1 X
14
#40000
04
06
#45000
b1 ]
b0 (
b0 J
b0 Z
b1 )
b1 I
b1 Y
1*
b0 W
14
#50000
04
#55000
0*
1:
b1 '
b1 8
b1 b
b1 q
b1 0
b1 <
b1 a
b1 d
b1 c
14
#60000
04
#65000
b1 `
b110111010 n
b101001 {
14
#70000
04
#75000
b101001 &
b101001 7
b101001 [
b101001 v
b101001 }
b110111010 /
b110111010 ;
b110111010 \
b110111010 i
b110111010 p
b10 `
14
#80000
04
#85000
0:
19
b0 c
14
#90000
04
#95000
b10 ]
b10 )
b10 I
b10 Y
1*
b1 W
b101001 Q
b110111010 F
09
14
#100000
04
#105000
1:
b0 `
b10 '
b10 8
b10 b
b10 q
b10 0
b10 <
b10 a
b10 d
b1 c
0*
14
#110000
04
#115000
b111010110 {
b110110101 n
b1 `
14
#120000
04
#125000
b10 `
b110110101 /
b110110101 ;
b110110101 \
b110110101 i
b110110101 p
b111010110 &
b111010110 7
b111010110 [
b111010110 v
b111010110 }
14
#130000
04
#135000
0:
19
b0 c
14
#140000
04
#145000
b111 ]
b1 (
b1 J
b1 Z
09
1*
b110 W
b111010110 S
b110110101 H
14
#150000
04
#155000
0*
1:
b0 `
b111 '
b111 8
b111 b
b111 q
b111 0
b111 <
b111 a
b111 d
b1 c
14
#160000
04
#165000
b1 `
b1000010 n
b110111101 {
14
#170000
04
#175000
b110111101 &
b110111101 7
b110111101 [
b110111101 v
b110111101 }
b1000010 /
b1000010 ;
b1000010 \
b1000010 i
b1000010 p
b10 `
14
#180000
04
#185000
0:
19
b0 c
14
#190000
04
#195000
b1100 ]
b10 (
b10 J
b10 Z
1*
b100 W
b110111101 P
b1000010 E
09
14
#200000
04
#205000
1:
b0 `
b1100 '
b1100 8
b1100 b
b1100 q
b1100 0
b1100 <
b1100 a
b1100 d
b1 c
0*
14
#210000
04
#215000
b111000111 {
b110111001 n
b1 `
14
#220000
04
#225000
b10 `
b110111001 /
b110111001 ;
b110111001 \
b110111001 i
b110111001 p
b111000111 &
b111000111 7
b111000111 [
b111000111 v
b111000111 }
14
#230000
04
#235000
0:
19
b0 c
14
#240000
04
#245000
b1011 ]
b1 )
b1 I
b1 Y
09
1*
b11 W
b111000111 M
b110111001 B
14
#250000
04
#255000
0*
1:
b0 `
b1011 '
b1011 8
b1011 b
b1011 q
b1011 0
b1011 <
b1011 a
b1011 d
b1 c
14
#260000
04
#265000
b1 `
b110100001 n
b110101101 {
14
#270000
04
#275000
b110101101 &
b110101101 7
b110101101 [
b110101101 v
b110101101 }
b110100001 /
b110100001 ;
b110100001 \
b110100001 i
b110100001 p
b10 `
14
#280000
04
#285000
0:
19
b0 c
14
#290000
04
#295000
b1010 ]
b0 )
b0 I
b0 Y
1*
b101 W
b110101101 K
b110100001 @
09
14
#300000
04
#305000
1:
b0 `
b1010 '
b1010 8
b1010 b
b1010 q
b1010 0
b1010 <
b1010 a
b1010 d
b1 c
0*
14
#310000
04
#315000
b110011011 {
b110100111 n
b1 `
14
#320000
04
#325000
b10 `
b110100111 /
b110100111 ;
b110100111 \
b110100111 i
b110100111 p
b110011011 &
b110011011 7
b110011011 [
b110011011 v
b110011011 }
14
#330000
04
#335000
0:
19
b0 c
14
#340000
04
#345000
b101 ]
b1 (
b1 J
b1 Z
09
1*
b111 W
b110011011 L
b110100111 A
14
#350000
04
#355000
0*
1:
b0 `
b101 '
b101 8
b101 b
b101 q
b101 0
b101 <
b101 a
b101 d
b1 c
14
#360000
04
#365000
b1 `
b1000001 n
b110001101 {
14
#370000
04
#375000
b110001101 &
b110001101 7
b110001101 [
b110001101 v
b110001101 }
b1000001 /
b1000001 ;
b1000001 \
b1000001 i
b1000001 p
b10 `
14
#380000
04
#385000
0:
19
b0 c
14
#390000
04
#395000
b0 ]
b0 (
b0 J
b0 Z
1*
b10 W
b110001101 N
b1000001 C
09
14
#400000
04
#405000
1:
b0 `
b0 '
b0 8
b0 b
b0 q
b0 0
b0 <
b0 a
b0 d
b1 c
0*
14
#410000
04
#415000
b10101 {
b111000100 n
b1 `
14
#420000
04
#425000
b10 `
b111000100 /
b111000100 ;
b111000100 \
b111000100 i
b111000100 p
b10101 &
b10101 7
b10101 [
b10101 v
b10101 }
14
#430000
04
#435000
0:
19
b0 c
14
#440000
04
#445000
b110 ]
b1 (
b1 J
b1 Z
b1 )
b1 I
b1 Y
09
1*
b1000 W
b10101 R
b111000100 G
14
#450000
04
#455000
0*
1:
b0 `
b110 '
b110 8
b110 b
b110 q
b110 0
b110 <
b110 a
b110 d
b1 c
14
#460000
04
#465000
b1 `
b10 n
b1001110 {
14
#470000
04
#475000
b1001110 &
b1001110 7
b1001110 [
b1001110 v
b1001110 }
b10 /
b10 ;
b10 \
b10 i
b10 p
b10 `
14
#480000
04
#485000
0:
19
b0 c
14
#490000
04
#495000
b10 +
b10 T
1$
0#
0-
0,
b10 X
b1001 W
b1001110 O
b10 D
09
14
#500000
04
#505000
b11 +
b11 T
b11 X
1%
14
#510000
04
#515000
b100 +
b100 T
b100 X
b10 "
b10 U
0%
14
#520000
04
#525000
b11 ]
0$
b0 (
b0 J
b0 Z
b11 )
b11 I
b11 Y
1*
b1 W
b110111101 O
b111000111 K
b111010110 Q
b1001110 N
b110101101 L
b101001 R
b1000010 D
b110111001 @
b110110101 F
b10 C
b110100001 A
b110111010 G
14
#530000
04
#535000
0*
1:
b0 `
b11 '
b11 8
b11 b
b11 q
b11 0
b11 <
b11 a
b11 d
b1 c
14
#540000
04
#545000
b1 `
b111000010 n
b1111011 {
14
#550000
04
#555000
b1111011 &
b1111011 7
b1111011 [
b1111011 v
b1111011 }
b111000010 /
b111000010 ;
b111000010 \
b111000010 i
b111000010 p
b10 `
14
#560000
04
#565000
0:
19
b0 c
14
#570000
04
#575000
b1000 ]
b1 (
b1 J
b1 Z
1*
b110 W
b1111011 S
b111000010 H
09
14
#580000
04
#585000
1:
b0 `
b1000 '
b1000 8
b1000 b
b1000 q
b1000 0
b1000 <
b1000 a
b1000 d
b1 c
0*
14
#590000
04
#595000
b110001011 {
b110010100 n
b1 `
14
#600000
04
#605000
b10 `
b110010100 /
b110010100 ;
b110010100 \
b110010100 i
b110010100 p
b110001011 &
b110001011 7
b110001011 [
b110001011 v
b110001011 }
14
#610000
04
#615000
0:
19
b0 c
14
#620000
04
#625000
b1101 ]
b10 (
b10 J
b10 Z
09
1*
b100 W
b110001011 P
b110010100 E
14
#630000
04
#635000
0*
1:
b0 `
b1101 '
b1101 8
b1101 b
b1101 q
b1101 0
b1101 <
b1101 a
b1101 d
b1 c
14
#640000
04
#645000
b1 `
b1110101 n
b100000 {
14
#650000
04
#655000
b100000 &
b100000 7
b100000 [
b100000 v
b100000 }
b1110101 /
b1110101 ;
b1110101 \
b1110101 i
b1110101 p
b10 `
14
#660000
04
#665000
0:
19
b0 c
14
#670000
04
#675000
b10 +
b10 T
b10 X
b1001 W
b100000 M
b1110101 B
09
14
#680000
04
#685000
b11 +
b11 T
b11 X
14
#690000
04
#695000
b100 +
b100 T
b100 X
b11 "
b11 U
14
#700000
04
#705000
b100 ]
b0 (
b0 J
b0 Z
b100 )
b100 I
b100 Y
1*
b1 W
b110001011 O
b100000 K
b1111011 Q
b110111101 N
b111000111 L
b111010110 R
b110010100 D
b1110101 @
b111000010 F
b1000010 C
b110111001 A
b110110101 G
14
#710000
04
#715000
0*
1:
b0 `
b100 '
b100 8
b100 b
b100 q
b100 0
b100 <
b100 a
b100 d
b1 c
14
#720000
04
#725000
b1 `
b111100010 n
b110100101 {
14
#730000
04
#735000
b110100101 &
b110100101 7
b110100101 [
b110100101 v
b110100101 }
b111100010 /
b111100010 ;
b111100010 \
b111100010 i
b111100010 p
b10 `
14
#740000
04
#745000
0:
19
b0 c
14
#750000
04
#755000
b1001 ]
b1 (
b1 J
b1 Z
1*
b110 W
b110100101 S
b111100010 H
09
14
#760000
04
#765000
1:
b0 `
b1001 '
b1001 8
b1001 b
b1001 q
b1001 0
b1001 <
b1001 a
b1001 d
b1 c
0*
14
#770000
04
#775000
b110010001 {
b1111 n
b1 `
14
#780000
04
#785000
b10 `
b1111 /
b1111 ;
b1111 \
b1111 i
b1111 p
b110010001 &
b110010001 7
b110010001 [
b110010001 v
b110010001 }
14
#790000
04
#795000
0:
19
b0 c
14
#800000
04
#805000
b1110 ]
1#
b10 (
b10 J
b10 Z
09
1*
b100 W
b110010001 P
b1111 E
14
#810000
04
#815000
0*
1:
b0 `
b1110 '
b1110 8
b1110 b
b1110 q
b1110 0
b1110 <
b1110 a
b1110 d
b1 c
14
#820000
04
#825000
b1 `
b111110100 n
b111100101 {
14
#830000
04
#835000
b111100101 &
b111100101 7
b111100101 [
b111100101 v
b111100101 }
b111110100 /
b111110100 ;
b111110100 \
b111110100 i
b111110100 p
b10 `
14
#840000
04
#845000
0:
19
b0 c
14
#850000
04
#855000
b10 +
b10 T
b10 X
b1001 W
b111100101 M
b111110100 B
09
14
#860000
04
#865000
b11 +
b11 T
b11 X
1%
14
#870000
04
#875000
b1 +
b1 T
b1 X
b10 !
b10 V
b1 "
b1 U
0%
14
#880000
04
#885000
b110 ]
b1 (
b1 J
b1 Z
b1 )
b1 I
b1 Y
1*
b0 W
14
#890000
04
#895000
0*
1:
b0 `
b110 '
b110 8
b110 b
b110 q
b110 0
b110 <
b110 a
b110 d
b1 c
14
#900000
04
#905000
b1 `
b10 n
b1001110 {
14
#910000
04
#915000
b1001110 &
b1001110 7
b1001110 [
b1001110 v
b1001110 }
b10 /
b10 ;
b10 \
b10 i
b10 p
b10 `
14
#920000
04
#925000
0:
19
b0 c
14
#930000
04
#935000
b111 ]
b10 )
b10 I
b10 Y
1*
b1 W
b1001110 Q
b10 F
09
14
#940000
04
#945000
1:
b0 `
b111 '
b111 8
b111 b
b111 q
b111 0
b111 <
b111 a
b111 d
b1 c
0*
14
#950000
04
#955000
b110111101 {
b1000010 n
b1 `
14
#960000
04
#965000
b10 `
b1000010 /
b1000010 ;
b1000010 \
b1000010 i
b1000010 p
b110111101 &
b110111101 7
b110111101 [
b110111101 v
b110111101 }
14
#970000
04
#975000
0:
19
b0 c
14
#980000
04
#985000
b1100 ]
b10 (
b10 J
b10 Z
09
1*
b110 W
b110111101 S
b1000010 H
14
#990000
04
#995000
0*
1:
b0 `
b1100 '
b1100 8
b1100 b
b1100 q
b1100 0
b1100 <
b1100 a
b1100 d
b1 c
14
#1000000
04
#1005000
b1 `
b110111001 n
b111000111 {
14
#1010000
04
#1015000
b111000111 &
b111000111 7
b111000111 [
b111000111 v
b111000111 }
b110111001 /
b110111001 ;
b110111001 \
b110111001 i
b110111001 p
b10 `
14
#1020000
04
#1025000
0:
19
b0 c
14
#1030000
04
#1035000
b10001 ]
b11 (
b11 J
b11 Z
1*
b100 W
b111000111 P
b110111001 E
09
14
#1040000
04
#1045000
1:
b0 `
b10001 '
b10001 8
b10001 b
b10001 q
b10001 0
b10001 <
b10001 a
b10001 d
b1 c
0*
14
#1050000
04
#1055000
b1101000 {
b1101110 n
b1 `
14
#1060000
04
#1065000
b10 `
b1101110 /
b1101110 ;
b1101110 \
b1101110 i
b1101110 p
b1101000 &
b1101000 7
b1101000 [
b1101000 v
b1101000 }
14
#1070000
04
#1075000
0:
19
b0 c
14
#1080000
04
#1085000
b10000 ]
b1 )
b1 I
b1 Y
09
1*
b11 W
b1101000 M
b1101110 B
14
#1090000
04
#1095000
0*
1:
b0 `
b10000 '
b10000 8
b10000 b
b10000 q
b10000 0
b10000 <
b10000 a
b10000 d
b1 c
14
#1100000
04
#1105000
b1 `
b1100001 n
b101111 {
14
#1110000
04
#1115000
b101111 &
b101111 7
b101111 [
b101111 v
b101111 }
b1100001 /
b1100001 ;
b1100001 \
b1100001 i
b1100001 p
b10 `
14
#1120000
04
#1125000
0:
19
b0 c
14
#1130000
04
#1135000
b1111 ]
b0 )
b0 I
b0 Y
1*
b101 W
b101111 K
b1100001 @
09
14
#1140000
04
#1145000
1:
b0 `
b1111 '
b1111 8
b1111 b
b1111 q
b1111 0
b1111 <
b1111 a
b1111 d
b1 c
0*
14
#1150000
04
#1155000
b110 {
b1011100 n
b1 `
14
#1160000
04
#1165000
b10 `
b1011100 /
b1011100 ;
b1011100 \
b1011100 i
b1011100 p
b110 &
b110 7
b110 [
b110 v
b110 }
14
#1170000
04
#1175000
0:
19
b0 c
14
#1180000
04
#1185000
b1010 ]
b10 (
b10 J
b10 Z
09
1*
b111 W
b110 L
b1011100 A
14
#1190000
04
#1195000
0*
1:
b0 `
b1010 '
b1010 8
b1010 b
b1010 q
b1010 0
b1010 <
b1010 a
b1010 d
b1 c
14
#1200000
04
#1205000
b1 `
b110100111 n
b110011011 {
14
#1210000
04
#1215000
b110011011 &
b110011011 7
b110011011 [
b110011011 v
b110011011 }
b110100111 /
b110100111 ;
b110100111 \
b110100111 i
b110100111 p
b10 `
14
#1220000
04
#1225000
0:
19
b0 c
14
#1230000
04
#1235000
b101 ]
b1 (
b1 J
b1 Z
1*
b10 W
b110011011 N
b110100111 C
09
14
#1240000
04
#1245000
1:
b0 `
b101 '
b101 8
b101 b
b101 q
b101 0
b101 <
b101 a
b101 d
b1 c
0*
14
#1250000
04
#1255000
b110001101 {
b1000001 n
b1 `
14
#1260000
04
#1265000
b10 `
b1000001 /
b1000001 ;
b1000001 \
b1000001 i
b1000001 p
b110001101 &
b110001101 7
b110001101 [
b110001101 v
b110001101 }
14
#1270000
04
#1275000
0:
19
b0 c
14
#1280000
04
#1285000
b1011 ]
b10 (
b10 J
b10 Z
b1 )
b1 I
b1 Y
09
1*
b1000 W
b110001101 R
b1000001 G
14
#1290000
04
#1295000
0*
1:
b0 `
b1011 '
b1011 8
b1011 b
b1011 q
b1011 0
b1011 <
b1011 a
b1011 d
b1 c
14
#1300000
04
#1305000
b1 `
b110100001 n
b110101101 {
14
#1310000
04
#1315000
b110101101 &
b110101101 7
b110101101 [
b110101101 v
b110101101 }
b110100001 /
b110100001 ;
b110100001 \
b110100001 i
b110100001 p
b10 `
14
#1320000
04
#1325000
0:
19
b0 c
14
#1330000
04
#1335000
b10 +
b10 T
0#
b10 X
b1001 W
b110101101 O
b110100001 D
09
14
#1340000
04
#1345000
b11 +
b11 T
b11 X
14
#1350000
04
#1355000
b100 +
b100 T
b100 X
b10 "
b10 U
14
#1360000
04
#1365000
b1000 ]
b1 (
b1 J
b1 Z
b11 )
b11 I
b11 Y
1*
b1 W
b111000111 O
b1101000 K
b110111101 Q
b110101101 N
b101111 L
b1001110 R
b110111001 D
b1101110 @
b1000010 F
b110100001 C
b1100001 A
b10 G
14
#1370000
04
#1375000
0*
1:
b0 `
b1000 '
b1000 8
b1000 b
b1000 q
b1000 0
b1000 <
b1000 a
b1000 d
b1 c
14
#1380000
04
#1385000
b1 `
b110010100 n
b110001011 {
14
#1390000
04
#1395000
b110001011 &
b110001011 7
b110001011 [
b110001011 v
b110001011 }
b110010100 /
b110010100 ;
b110010100 \
b110010100 i
b110010100 p
b10 `
14
#1400000
04
#1405000
0:
19
b0 c
14
#1410000
04
#1415000
b1101 ]
b10 (
b10 J
b10 Z
1*
b110 W
b110001011 S
b110010100 H
09
14
#1420000
04
#1425000
1:
b0 `
b1101 '
b1101 8
b1101 b
b1101 q
b1101 0
b1101 <
b1101 a
b1101 d
b1 c
0*
14
#1430000
04
#1435000
b100000 {
b1110101 n
b1 `
14
#1440000
04
#1445000
b10 `
b1110101 /
b1110101 ;
b1110101 \
b1110101 i
b1110101 p
b100000 &
b100000 7
b100000 [
b100000 v
b100000 }
14
#1450000
04
#1455000
0:
19
b0 c
14
#1460000
04
#1465000
b10010 ]
b11 (
b11 J
b11 Z
09
1*
b100 W
b100000 P
b1110101 E
14
#1470000
04
#1475000
0*
1:
b0 `
b10010 '
b10010 8
b10010 b
b10010 q
b10010 0
b10010 <
b10010 a
b10010 d
b1 c
14
#1480000
04
#1485000
b1 `
b111100110 n
b101111 {
14
#1490000
04
#1495000
b101111 &
b101111 7
b101111 [
b101111 v
b101111 }
b111100110 /
b111100110 ;
b111100110 \
b111100110 i
b111100110 p
b10 `
14
#1500000
04
#1505000
0:
19
b0 c
14
#1510000
04
#1515000
b10 +
b10 T
b10 X
b1001 W
b101111 M
b111100110 B
09
14
#1520000
04
#1525000
b11 +
b11 T
b11 X
14
#1530000
04
#1535000
b100 +
b100 T
b100 X
b11 "
b11 U
14
#1540000
04
#1545000
b1001 ]
b1 (
b1 J
b1 Z
b100 )
b100 I
b100 Y
1*
b1 W
b100000 O
b101111 K
b110001011 Q
b111000111 N
b1101000 L
b110111101 R
b1110101 D
b111100110 @
b110010100 F
b110111001 C
b1101110 A
b1000010 G
14
#1550000
04
#1555000
0*
1:
b0 `
b1001 '
b1001 8
b1001 b
b1001 q
b1001 0
b1001 <
b1001 a
b1001 d
b1 c
14
#1560000
04
#1565000
b1 `
b1111 n
b110010001 {
14
#1570000
04
#1575000
b110010001 &
b110010001 7
b110010001 [
b110010001 v
b110010001 }
b1111 /
b1111 ;
b1111 \
b1111 i
b1111 p
b10 `
14
#1580000
04
#1585000
0:
19
b0 c
14
#1590000
04
#1595000
b1110 ]
b10 (
b10 J
b10 Z
1*
b110 W
b110010001 S
b1111 H
09
14
#1600000
04
#1605000
1:
b0 `
b1110 '
b1110 8
b1110 b
b1110 q
b1110 0
b1110 <
b1110 a
b1110 d
b1 c
0*
14
#1610000
04
#1615000
b111100101 {
b111110100 n
b1 `
14
#1620000
04
#1625000
b10 `
b111110100 /
b111110100 ;
b111110100 \
b111110100 i
b111110100 p
b111100101 &
b111100101 7
b111100101 [
b111100101 v
b111100101 }
14
#1630000
04
#1635000
0:
19
b0 c
14
#1640000
04
#1645000
b10011 ]
1-
b11 (
b11 J
b11 Z
09
1*
b100 W
b111100101 P
b111110100 E
14
#1650000
04
#1655000
0*
1:
b0 `
b10011 '
b10011 8
b10011 b
b10011 q
b10011 0
b10011 <
b10011 a
b10011 d
b1 c
14
#1660000
04
#1665000
b1 `
b110001111 n
b110010111 {
14
#1670000
04
#1675000
b110010111 &
b110010111 7
b110010111 [
b110010111 v
b110010111 }
b110001111 /
b110001111 ;
b110001111 \
b110001111 i
b110001111 p
b10 `
14
#1680000
04
#1685000
0:
19
b0 c
14
#1690000
04
#1695000
b10 +
b10 T
b10 X
b1001 W
b110010111 M
b110001111 B
09
14
#1700000
04
#1705000
b11 +
b11 T
b11 X
1.
14
#1710000
04
#1715000
b1 +
b1 T
b1 X
b11 !
b11 V
b1 "
b1 U
0.
14
#1720000
04
#1725000
b1011 ]
b10 (
b10 J
b10 Z
b1 )
b1 I
b1 Y
1*
b0 W
14
#1730000
04
#1735000
0*
1:
b0 `
b1011 '
b1011 8
b1011 b
b1011 q
b1011 0
b1011 <
b1011 a
b1011 d
b1 c
14
#1740000
04
#1745000
b1 `
b110100001 n
b110101101 {
14
#1750000
04
#1755000
b110101101 &
b110101101 7
b110101101 [
b110101101 v
b110101101 }
b110100001 /
b110100001 ;
b110100001 \
b110100001 i
b110100001 p
b10 `
14
#1760000
04
#1765000
0:
19
b0 c
14
#1770000
04
#1775000
b1100 ]
b10 )
b10 I
b10 Y
1*
b1 W
b110101101 Q
b110100001 F
09
14
#1780000
04
#1785000
1:
b0 `
b1100 '
b1100 8
b1100 b
b1100 q
b1100 0
b1100 <
b1100 a
b1100 d
b1 c
0*
14
#1790000
04
#1795000
b111000111 {
b110111001 n
b1 `
14
#1800000
04
#1805000
b10 `
b110111001 /
b110111001 ;
b110111001 \
b110111001 i
b110111001 p
b111000111 &
b111000111 7
b111000111 [
b111000111 v
b111000111 }
14
#1810000
04
#1815000
0:
19
b0 c
14
#1820000
04
#1825000
b10001 ]
b11 (
b11 J
b11 Z
09
1*
b110 W
b111000111 S
b110111001 H
14
#1830000
04
#1835000
0*
1:
b0 `
b10001 '
b10001 8
b10001 b
b10001 q
b10001 0
b10001 <
b10001 a
b10001 d
b1 c
14
#1840000
04
#1845000
b1 `
b1101110 n
b1101000 {
14
#1850000
04
#1855000
b1101000 &
b1101000 7
b1101000 [
b1101000 v
b1101000 }
b1101110 /
b1101110 ;
b1101110 \
b1101110 i
b1101110 p
b10 `
14
#1860000
04
#1865000
0:
19
b0 c
14
#1870000
04
#1875000
b10110 ]
b100 (
b100 J
b100 Z
1*
b100 W
b1101000 P
b1101110 E
09
14
#1880000
04
#1885000
1:
b0 `
b10110 '
b10110 8
b10110 b
b10110 q
b10110 0
b10110 <
b10110 a
b10110 d
b1 c
0*
14
#1890000
04
#1895000
b110110101 {
b10110 n
b1 `
14
#1900000
04
#1905000
b10 `
b10110 /
b10110 ;
b10110 \
b10110 i
b10110 p
b110110101 &
b110110101 7
b110110101 [
b110110101 v
b110110101 }
14
#1910000
04
#1915000
0:
19
b0 c
14
#1920000
04
#1925000
b10101 ]
b1 )
b1 I
b1 Y
09
1*
b11 W
b110110101 M
b10110 B
14
#1930000
04
#1935000
0*
1:
b0 `
b10101 '
b10101 8
b10101 b
b10101 q
b10101 0
b10101 <
b10101 a
b10101 d
b1 c
14
#1940000
04
#1945000
b1 `
b1011111 n
b110100001 {
14
#1950000
04
#1955000
b110100001 &
b110100001 7
b110100001 [
b110100001 v
b110100001 }
b1011111 /
b1011111 ;
b1011111 \
b1011111 i
b1011111 p
b10 `
14
#1960000
04
#1965000
0:
19
b0 c
14
#1970000
04
#1975000
b10100 ]
b0 )
b0 I
b0 Y
1*
b101 W
b110100001 K
b1011111 @
09
14
#1980000
04
#1985000
1:
b0 `
b10100 '
b10100 8
b10100 b
b10100 q
b10100 0
b10100 <
b10100 a
b10100 d
b1 c
0*
14
#1990000
04
#1995000
b111000100 {
b111001010 n
b1 `
14
#2000000
04
#2005000
b10 `
b111001010 /
b111001010 ;
b111001010 \
b111001010 i
b111001010 p
b111000100 &
b111000100 7
b111000100 [
b111000100 v
b111000100 }
14
#2010000
04
#2015000
0:
19
b0 c
14
#2020000
04
#2025000
b1111 ]
b11 (
b11 J
b11 Z
09
1*
b111 W
b111000100 L
b111001010 A
14
#2030000
04
#2035000
0*
1:
b0 `
b1111 '
b1111 8
b1111 b
b1111 q
b1111 0
b1111 <
b1111 a
b1111 d
b1 c
14
#2040000
04
#2045000
b1 `
b1011100 n
b110 {
14
#2050000
04
#2055000
b110 &
b110 7
b110 [
b110 v
b110 }
b1011100 /
b1011100 ;
b1011100 \
b1011100 i
b1011100 p
b10 `
14
#2060000
04
#2065000
0:
19
b0 c
14
#2070000
04
#2075000
b1010 ]
b10 (
b10 J
b10 Z
1*
b10 W
b110 N
b1011100 C
09
14
#2080000
04
#2085000
1:
b0 `
b1010 '
b1010 8
b1010 b
b1010 q
b1010 0
b1010 <
b1010 a
b1010 d
b1 c
0*
14
#2090000
04
#2095000
b110011011 {
b110100111 n
b1 `
14
#2100000
04
#2105000
b10 `
b110100111 /
b110100111 ;
b110100111 \
b110100111 i
b110100111 p
b110011011 &
b110011011 7
b110011011 [
b110011011 v
b110011011 }
14
#2110000
04
#2115000
0:
19
b0 c
14
#2120000
04
#2125000
b10000 ]
b11 (
b11 J
b11 Z
b1 )
b1 I
b1 Y
09
1*
b1000 W
b110011011 R
b110100111 G
14
#2130000
04
#2135000
0*
1:
b0 `
b10000 '
b10000 8
b10000 b
b10000 q
b10000 0
b10000 <
b10000 a
b10000 d
b1 c
14
#2140000
04
#2145000
b1 `
b1100001 n
b101111 {
14
#2150000
04
#2155000
b101111 &
b101111 7
b101111 [
b101111 v
b101111 }
b1100001 /
b1100001 ;
b1100001 \
b1100001 i
b1100001 p
b10 `
14
#2160000
04
