dump.vcd
$date
	Sun Dec 10 18:46:02 2023
$end
$version
	Icarus Verilog
$end
$timescale
	1ps
$end
$scope module find_keypts_tb $end
$scope module finder $end
$scope module O1L1L2 $end
$var reg 9 ! \BRAM[0] [8:0] $end
$upscope $end
$upscope $end
$upscope $end
$scope module find_keypts_tb $end
$scope module finder $end
$scope module O1L1L2 $end
$var reg 9 " \BRAM[1] [8:0] $end
$upscope $end
$upscope $end
$upscope $end
$scope module find_keypts_tb $end
$scope module finder $end
$scope module O1L1L2 $end
$var reg 9 # \BRAM[2] [8:0] $end
$upscope $end
$upscope $end
$upscope $end
$scope module find_keypts_tb $end
$scope module finder $end
$scope module O1L1L2 $end
$var reg 9 $ \BRAM[3] [8:0] $end
$upscope $end
$upscope $end
$upscope $end
$scope module find_keypts_tb $end
$scope module finder $end
$scope module O1L1L2 $end
$var reg 9 % \BRAM[4] [8:0] $end
$upscope $end
$upscope $end
$upscope $end
$scope module find_keypts_tb $end
$scope module finder $end
$scope module O1L1L2 $end
$var reg 9 & \BRAM[5] [8:0] $end
$upscope $end
$upscope $end
$upscope $end
$scope module find_keypts_tb $end
$scope module finder $end
$scope module O1L1L2 $end
$var reg 9 ' \BRAM[6] [8:0] $end
$upscope $end
$upscope $end
$upscope $end
$scope module find_keypts_tb $end
$scope module finder $end
$scope module O1L1L2 $end
$var reg 9 ( \BRAM[7] [8:0] $end
$upscope $end
$upscope $end
$upscope $end
$scope module find_keypts_tb $end
$scope module finder $end
$scope module O1L1L2 $end
$var reg 9 ) \BRAM[8] [8:0] $end
$upscope $end
$upscope $end
$upscope $end
$scope module find_keypts_tb $end
$scope module finder $end
$scope module O1L1L2 $end
$var reg 9 * \BRAM[9] [8:0] $end
$upscope $end
$upscope $end
$upscope $end
$scope module find_keypts_tb $end
$scope module finder $end
$scope module O1L1L2 $end
$var reg 9 + \BRAM[10] [8:0] $end
$upscope $end
$upscope $end
$upscope $end
$scope module find_keypts_tb $end
$scope module finder $end
$scope module O1L1L2 $end
$var reg 9 , \BRAM[11] [8:0] $end
$upscope $end
$upscope $end
$upscope $end
$scope module find_keypts_tb $end
$scope module finder $end
$scope module O1L1L2 $end
$var reg 9 - \BRAM[12] [8:0] $end
$upscope $end
$upscope $end
$upscope $end
$scope module find_keypts_tb $end
$scope module finder $end
$scope module O1L1L2 $end
$var reg 9 . \BRAM[13] [8:0] $end
$upscope $end
$upscope $end
$upscope $end
$scope module find_keypts_tb $end
$scope module finder $end
$scope module O1L1L2 $end
$var reg 9 / \BRAM[14] [8:0] $end
$upscope $end
$upscope $end
$upscope $end
$scope module find_keypts_tb $end
$scope module finder $end
$scope module O1L1L2 $end
$var reg 9 0 \BRAM[15] [8:0] $end
$upscope $end
$upscope $end
$upscope $end
$scope module find_keypts_tb $end
$scope module finder $end
$scope module O1L2L3 $end
$var reg 9 1 \BRAM[0] [8:0] $end
$upscope $end
$upscope $end
$upscope $end
$scope module find_keypts_tb $end
$scope module finder $end
$scope module O1L2L3 $end
$var reg 9 2 \BRAM[1] [8:0] $end
$upscope $end
$upscope $end
$upscope $end
$scope module find_keypts_tb $end
$scope module finder $end
$scope module O1L2L3 $end
$var reg 9 3 \BRAM[2] [8:0] $end
$upscope $end
$upscope $end
$upscope $end
$scope module find_keypts_tb $end
$scope module finder $end
$scope module O1L2L3 $end
$var reg 9 4 \BRAM[3] [8:0] $end
$upscope $end
$upscope $end
$upscope $end
$scope module find_keypts_tb $end
$scope module finder $end
$scope module O1L2L3 $end
$var reg 9 5 \BRAM[4] [8:0] $end
$upscope $end
$upscope $end
$upscope $end
$scope module find_keypts_tb $end
$scope module finder $end
$scope module O1L2L3 $end
$var reg 9 6 \BRAM[5] [8:0] $end
$upscope $end
$upscope $end
$upscope $end
$scope module find_keypts_tb $end
$scope module finder $end
$scope module O1L2L3 $end
$var reg 9 7 \BRAM[6] [8:0] $end
$upscope $end
$upscope $end
$upscope $end
$scope module find_keypts_tb $end
$scope module finder $end
$scope module O1L2L3 $end
$var reg 9 8 \BRAM[7] [8:0] $end
$upscope $end
$upscope $end
$upscope $end
$scope module find_keypts_tb $end
$scope module finder $end
$scope module O1L2L3 $end
$var reg 9 9 \BRAM[8] [8:0] $end
$upscope $end
$upscope $end
$upscope $end
$scope module find_keypts_tb $end
$scope module finder $end
$scope module O1L2L3 $end
$var reg 9 : \BRAM[9] [8:0] $end
$upscope $end
$upscope $end
$upscope $end
$scope module find_keypts_tb $end
$scope module finder $end
$scope module O1L2L3 $end
$var reg 9 ; \BRAM[10] [8:0] $end
$upscope $end
$upscope $end
$upscope $end
$scope module find_keypts_tb $end
$scope module finder $end
$scope module O1L2L3 $end
$var reg 9 < \BRAM[11] [8:0] $end
$upscope $end
$upscope $end
$upscope $end
$scope module find_keypts_tb $end
$scope module finder $end
$scope module O1L2L3 $end
$var reg 9 = \BRAM[12] [8:0] $end
$upscope $end
$upscope $end
$upscope $end
$scope module find_keypts_tb $end
$scope module finder $end
$scope module O1L2L3 $end
$var reg 9 > \BRAM[13] [8:0] $end
$upscope $end
$upscope $end
$upscope $end
$scope module find_keypts_tb $end
$scope module finder $end
$scope module O1L2L3 $end
$var reg 9 ? \BRAM[14] [8:0] $end
$upscope $end
$upscope $end
$upscope $end
$scope module find_keypts_tb $end
$scope module finder $end
$scope module O1L2L3 $end
$var reg 9 @ \BRAM[15] [8:0] $end
$upscope $end
$upscope $end
$upscope $end
$scope module find_keypts_tb $end
$var wire 8 A third_data [7:0] $end
$var wire 4 B third_address [3:0] $end
$var wire 8 C second_data [7:0] $end
$var wire 4 D second_address [3:0] $end
$var wire 1 E keypoints_done $end
$var wire 8 F first_data [7:0] $end
$var wire 4 G first_address [3:0] $end
$var wire 1 H dog_one_done $end
$var wire 4 I O1key_write_addr [3:0] $end
$var wire 1 J O1key_wea $end
$var wire 5 K O1_keypoint_out [4:0] $end
$var parameter 32 L BIT_DEPTH $end
$var parameter 32 M DIMENSION $end
$var parameter 32 N TOP_HEIGHT $end
$var parameter 32 O TOP_WIDTH $end
$var reg 1 P clk_in $end
$var reg 11 Q number_keypt [10:0] $end
$var reg 1 R rst_in $end
$var reg 1 S start_keypt $end
$scope module finder $end
$var wire 1 P clk $end
$var wire 1 E keypoints_done $end
$var wire 1 R rst_in $end
$var wire 1 S start $end
$var wire 1 J O1key_wea $end
$var wire 5 T O1_keypoint_out [4:0] $end
$var wire 1 U O1_key_done $end
$var wire 1 H O1_DOG_L2L3_done $end
$var wire 1 V O1_DOG_L1L2_done $end
$var wire 8 W O1L3_data [7:0] $end
$var wire 8 X O1L2_data [7:0] $end
$var wire 1 Y O1L2L3_wea $end
$var wire 2 Z O1L2L3_state [1:0] $end
$var wire 9 [ O1L2L3_read_data [8:0] $end
$var wire 4 \ O1L2L3_read_address [3:0] $end
$var wire 9 ] O1L2L3_data_write [8:0] $end
$var wire 1 ^ O1L2L3_busy $end
$var wire 4 _ O1L2L3_address [3:0] $end
$var wire 8 ` O1L1_data [7:0] $end
$var wire 1 a O1L1L2_wea $end
$var wire 2 b O1L1L2_state [1:0] $end
$var wire 9 c O1L1L2_read_data [8:0] $end
$var wire 4 d O1L1L2_read_address [3:0] $end
$var wire 9 e O1L1L2_data_write [8:0] $end
$var wire 4 f O1L1L2_address [3:0] $end
$var parameter 32 g DIMENSION $end
$var parameter 32 h DOG_IMAGES_PER_OCTAVE $end
$var parameter 32 i IMG_BIT_DEPTH $end
$var parameter 32 j NUMBER_KEYPOINTS $end
$var parameter 32 k NUMBER_OCTAVES $end
$var parameter 32 l TOP_HEIGHT $end
$var parameter 32 m TOP_WIDTH $end
$var reg 4 n O1L1_read_addr [3:0] $end
$var reg 4 o O1L2_read_addr [3:0] $end
$var reg 4 p O1L3_read_addr [3:0] $end
$var reg 4 q O1key_write_addr [3:0] $end
$var reg 1 r old_O1key_wea $end
$scope module O1L1L2 $end
$var wire 1 P clka $end
$var wire 1 P clkb $end
$var wire 9 s dinb [8:0] $end
$var wire 1 t ena $end
$var wire 1 u enb $end
$var wire 1 v regcea $end
$var wire 1 w regceb $end
$var wire 1 R rsta $end
$var wire 1 R rstb $end
$var wire 1 x web $end
$var wire 1 a wea $end
$var wire 9 y doutb [8:0] $end
$var wire 9 z douta [8:0] $end
$var wire 9 { dina [8:0] $end
$var wire 4 | addrb [3:0] $end
$var wire 4 } addra [3:0] $end
$var parameter 0 ~ INIT_FILE $end
$var parameter 64 !" RAM_DEPTH $end
$var parameter 128 "" RAM_PERFORMANCE $end
$var parameter 33 #" RAM_WIDTH $end
$var reg 9 $" ram_data_a [8:0] $end
$var reg 9 %" ram_data_b [8:0] $end
$var integer 32 &" idx [31:0] $end
$scope function clogb2 $end
$var integer 32 '" depth [31:0] $end
$upscope $end
$scope begin init_bram_to_zero $end
$var integer 32 (" ram_index [31:0] $end
$upscope $end
$scope begin output_register $end
$var reg 9 )" douta_reg [8:0] $end
$var reg 9 *" doutb_reg [8:0] $end
$upscope $end
$upscope $end
$scope module O1L2L3 $end
$var wire 1 P clka $end
$var wire 1 P clkb $end
$var wire 9 +" dinb [8:0] $end
$var wire 1 ," ena $end
$var wire 1 -" enb $end
$var wire 1 ." regcea $end
$var wire 1 /" regceb $end
$var wire 1 R rsta $end
$var wire 1 R rstb $end
$var wire 1 0" web $end
$var wire 1 Y wea $end
$var wire 9 1" doutb [8:0] $end
$var wire 9 2" douta [8:0] $end
$var wire 9 3" dina [8:0] $end
$var wire 4 4" addrb [3:0] $end
$var wire 4 5" addra [3:0] $end
$var parameter 0 6" INIT_FILE $end
$var parameter 64 7" RAM_DEPTH $end
$var parameter 128 8" RAM_PERFORMANCE $end
$var parameter 33 9" RAM_WIDTH $end
$var reg 9 :" ram_data_a [8:0] $end
$var reg 9 ;" ram_data_b [8:0] $end
$var integer 32 <" idx [31:0] $end
$scope function clogb2 $end
$var integer 32 =" depth [31:0] $end
$upscope $end
$scope begin init_bram_to_zero $end
$var integer 32 >" ram_index [31:0] $end
$upscope $end
$scope begin output_register $end
$var reg 9 ?" douta_reg [8:0] $end
$var reg 9 @" doutb_reg [8:0] $end
$upscope $end
$upscope $end
$scope module O1_DOG_L1L2 $end
$var wire 1 S bram_ready $end
$var wire 1 P clk $end
$var wire 1 R rst_in $end
$var wire 8 A" sharper_pix [7:0] $end
$var wire 8 B" fuzzier_pix [7:0] $end
$var parameter 65 C" BRAM_LENGTH $end
$var parameter 32 D" DIMENSION $end
$var reg 4 E" address [3:0] $end
$var reg 1 F" busy $end
$var reg 2 G" counter [1:0] $end
$var reg 9 H" data_out [8:0] $end
$var reg 1 V done $end
$var reg 9 I" fuzz_sign [8:0] $end
$var reg 1 J" old_bram $end
$var reg 9 K" sharp_sign [8:0] $end
$var reg 2 L" state_num [1:0] $end
$var reg 1 a wea $end
$var reg 1 M" write $end
$var integer 32 N" state [31:0] $end
$upscope $end
$scope module O1_DOG_L2L3 $end
$var wire 1 V bram_ready $end
$var wire 1 P clk $end
$var wire 1 R rst_in $end
$var wire 8 O" sharper_pix [7:0] $end
$var wire 8 P" fuzzier_pix [7:0] $end
$var parameter 65 Q" BRAM_LENGTH $end
$var parameter 32 R" DIMENSION $end
$var reg 4 S" address [3:0] $end
$var reg 1 ^ busy $end
$var reg 2 T" counter [1:0] $end
$var reg 9 U" data_out [8:0] $end
$var reg 1 H done $end
$var reg 9 V" fuzz_sign [8:0] $end
$var reg 1 W" old_bram $end
$var reg 9 X" sharp_sign [8:0] $end
$var reg 2 Y" state_num [1:0] $end
$var reg 1 Y wea $end
$var reg 1 Z" write $end
$var integer 32 [" state [31:0] $end
$upscope $end
$scope module finder $end
$var wire 1 P clk $end
$var wire 1 H enable $end
$var wire 9 \" first_data [8:0] $end
$var wire 1 R rst_in $end
$var wire 9 ]" second_data [8:0] $end
$var wire 4 ^" second_address [3:0] $end
$var wire 1 _" reader_done $end
$var wire 1 `" reader_busy $end
$var wire 4 a" first_address [3:0] $end
$var parameter 32 b" ABS_CONTRAST_THRESHOLD $end
$var parameter 32 c" BIT_DEPTH $end
$var parameter 32 d" DIMENSION $end
$var reg 1 U done_checking $end
$var reg 9 e" first_bottom [8:0] $end
$var reg 9 f" first_bottom_left [8:0] $end
$var reg 9 g" first_bottom_right [8:0] $end
$var reg 1 h" first_is_extremum $end
$var reg 1 i" first_is_max $end
$var reg 1 j" first_is_min $end
$var reg 9 k" first_left [8:0] $end
$var reg 9 l" first_middle [8:0] $end
$var reg 9 m" first_right [8:0] $end
$var reg 9 n" first_top [8:0] $end
$var reg 9 o" first_top_left [8:0] $end
$var reg 9 p" first_top_right [8:0] $end
$var reg 5 q" key_out [4:0] $end
$var reg 1 J key_wea $end
$var reg 1 r" read $end
$var reg 2 s" read_x [1:0] $end
$var reg 2 t" read_y [1:0] $end
$var reg 9 u" second_bottom [8:0] $end
$var reg 9 v" second_bottom_left [8:0] $end
$var reg 9 w" second_bottom_right [8:0] $end
$var reg 1 x" second_is_extremum $end
$var reg 1 y" second_is_max $end
$var reg 1 z" second_is_min $end
$var reg 9 {" second_left [8:0] $end
$var reg 9 |" second_middle [8:0] $end
$var reg 9 }" second_right [8:0] $end
$var reg 9 ~" second_top [8:0] $end
$var reg 9 !# second_top_left [8:0] $end
$var reg 9 "# second_top_right [8:0] $end
$var reg 3 ## state_number [2:0] $end
$var reg 2 $# x [1:0] $end
$var reg 2 %# y [1:0] $end
$var integer 32 &# pixel_pos [31:0] $end
$var integer 32 '# state [31:0] $end
$scope module reader $end
$var wire 1 P clk $end
$var wire 9 (# first_data [8:0] $end
$var wire 1 r" input_ready $end
$var wire 1 R rst_in $end
$var wire 9 )# second_data [8:0] $end
$var wire 2 *# x [1:0] $end
$var wire 2 +# y [1:0] $end
$var wire 4 ,# address [3:0] $end
$var parameter 32 -# BIT_DEPTH $end
$var parameter 32 .# DIMENSION $end
$var reg 1 `" busy $end
$var reg 2 /# counter [1:0] $end
$var reg 1 _" done $end
$var reg 4 0# first_address [3:0] $end
$var reg 4 1# second_address [3:0] $end
$var integer 32 2# state [31:0] $end
$upscope $end
$upscope $end
$upscope $end
$scope module first_bram $end
$var wire 4 3# addra [3:0] $end
$var wire 1 P clka $end
$var wire 8 4# dina [7:0] $end
$var wire 1 5# ena $end
$var wire 1 6# regcea $end
$var wire 1 R rsta $end
$var wire 1 7# wea $end
$var wire 8 8# douta [7:0] $end
$var parameter 152 9# INIT_FILE $end
$var parameter 64 :# RAM_DEPTH $end
$var parameter 128 ;# RAM_PERFORMANCE $end
$var parameter 32 <# RAM_WIDTH $end
$var reg 8 =# ram_data [7:0] $end
$scope function clogb2 $end
$var integer 32 ># depth [31:0] $end
$upscope $end
$scope begin output_register $end
$var reg 8 ?# douta_reg [7:0] $end
$upscope $end
$scope begin use_init_file $end
$upscope $end
$upscope $end
$scope module second_bram $end
$var wire 4 @# addra [3:0] $end
$var wire 1 P clka $end
$var wire 8 A# dina [7:0] $end
$var wire 1 B# ena $end
$var wire 1 C# regcea $end
$var wire 1 R rsta $end
$var wire 1 D# wea $end
$var wire 8 E# douta [7:0] $end
$var parameter 160 F# INIT_FILE $end
$var parameter 64 G# RAM_DEPTH $end
$var parameter 128 H# RAM_PERFORMANCE $end
$var parameter 32 I# RAM_WIDTH $end
$var reg 8 J# ram_data [7:0] $end
$scope function clogb2 $end
$var integer 32 K# depth [31:0] $end
$upscope $end
$scope begin output_register $end
$var reg 8 L# douta_reg [7:0] $end
$upscope $end
$scope begin use_init_file $end
$upscope $end
$upscope $end
$scope module third_bram $end
$var wire 4 M# addra [3:0] $end
$var wire 1 P clka $end
$var wire 8 N# dina [7:0] $end
$var wire 1 O# ena $end
$var wire 1 P# regcea $end
$var wire 1 R rsta $end
$var wire 1 Q# wea $end
$var wire 8 R# douta [7:0] $end
$var parameter 152 S# INIT_FILE $end
$var parameter 64 T# RAM_DEPTH $end
$var parameter 128 U# RAM_PERFORMANCE $end
$var parameter 32 V# RAM_WIDTH $end
$var reg 8 W# ram_data [7:0] $end
$scope function clogb2 $end
$var integer 32 X# depth [31:0] $end
$upscope $end
$scope begin output_register $end
$var reg 8 Y# douta_reg [7:0] $end
$upscope $end
$scope begin use_init_file $end
$upscope $end
$upscope $end
$upscope $end
$enddefinitions $end
$comment Show the parameter values. $end
$dumpall
b1000 V#
b1001000010010010100011101001000010111110101000001000101010100100100011001001111010100100100110101000001010011100100001101000101 U#
b10000 T#
b1110100011010000110100101110010011001000101111101110100011001010111001101110100010111110110001001110010011000010110110100101110011011010110010101101101 S#
b1000 I#
b1001000010010010100011101001000010111110101000001000101010100100100011001001111010100100100110101000001010011100100001101000101 H#
b10000 G#
b111001101100101011000110110111101101110011001000101111101110100011001010111001101110100010111110110001001110010011000010110110100101110011011010110010101101101 F#
b1000 <#
b1001000010010010100011101001000010111110101000001000101010100100100011001001111010100100100110101000001010011100100001101000101 ;#
b10000 :#
b1100110011010010111001001110011011101000101111101110100011001010111001101110100010111110110001001110010011000010110110100101110011011010110010101101101 9#
b100 .#
b1001 -#
b100 d"
b1001 c"
b100 b"
b100 R"
b1111 Q"
b100 D"
b1111 C"
b1001 9"
b1001000010010010100011101001000010111110101000001000101010100100100011001001111010100100100110101000001010011100100001101000101 8"
b10000 7"
b 6"
b1001 #"
b1001000010010010100011101001000010111110101000001000101010100100100011001001111010100100100110101000001010011100100001101000101 ""
b10000 !"
b ~
b100 m
b100 l
b11 k
b1111101000 j
b1000 i
b10 h
b100 g
b100 O
b100 N
b100 M
b1000 L
$end
#0
$dumpvars
b0 Y#
bx X#
b0 W#
b0 R#
0Q#
1P#
1O#
b0 N#
bx M#
b0 L#
bx K#
b0 J#
b0 E#
0D#
1C#
1B#
b0 A#
bx @#
b0 ?#
bx >#
b0 =#
b0 8#
07#
16#
15#
b0 4#
bx 3#
b0 2#
bx 1#
bx 0#
bx /#
bx ,#
bx +#
bx *#
b0 )#
b0 (#
b0 '#
b0 &#
bx %#
bx $#
b0 ##
bx "#
bx !#
bx ~"
bx }"
bx |"
bx {"
xz"
xy"
xx"
bx w"
bx v"
bx u"
bx t"
bx s"
xr"
bx q"
bx p"
bx o"
bx n"
bx m"
bx l"
bx k"
xj"
xi"
xh"
bx g"
bx f"
bx e"
bx a"
x`"
x_"
bx ^"
b0 ]"
b0 \"
b0 ["
xZ"
bx Y"
bx X"
xW"
bx V"
bx U"
bx T"
bx S"
b0 P"
b0 O"
b0 N"
xM"
bx L"
bx K"
xJ"
bx I"
bx H"
bx G"
xF"
bx E"
b0 B"
b0 A"
b0 @"
b0 ?"
b10000 >"
bx ="
b10000 <"
b0 ;"
b0 :"
bx 5"
bx 4"
bx 3"
b0 2"
b0 1"
00"
1/"
1."
1-"
1,"
bz +"
b0 *"
b0 )"
b10000 ("
bx '"
b10000 &"
b0 %"
b0 $"
bx }
bx |
bx {
b0 z
b0 y
0x
1w
1v
1u
1t
bz s
xr
bx q
bx p
bx o
bx n
bx f
bx e
bx d
b0 c
bx b
xa
b0 `
bx _
x^
bx ]
bx \
b0 [
bx Z
xY
b0 X
b0 W
xV
xU
bx T
xS
0R
bx Q
0P
bx K
xJ
bx I
xH
bx G
b0 F
xE
bx D
b0 C
bx B
b0 A
b0 @
b0 ?
b0 >
b0 =
b0 <
b0 ;
b0 :
b0 9
b0 8
b0 7
b0 6
b0 5
b0 4
b0 3
b0 2
b0 1
b0 0
b0 /
b0 .
b0 -
b0 ,
b0 +
b0 *
b0 )
b0 (
b0 '
b0 &
b0 %
b0 $
b0 #
b0 "
b0 !
$end
#5000
bx $"
bx %"
bx :"
bx ;"
0V
0H
0_"
0E
0U
0r"
bx =#
bx J#
bx W#
1P
#10000
0P
1R
#15000
b0 B
b0 p
b0 M#
b0 D
b0 o
b0 @#
b0 G
b0 n
b0 3#
b0 I
b0 q
b0 K
b0 T
b0 q"
0J
b1 %#
b1 $#
0x"
0h"
b1001 &#
b0 /#
0Y
0Z"
0^
b0 _
b0 5"
b0 S"
b0 T"
b0 Z
b0 Y"
0W"
0a
0M"
0F"
b0 f
b0 }
b0 E"
b0 G"
b0 b
b0 L"
1P
#20000
0P
b0 Q
0R
#25000
bx z
bx )"
bx c
bx y
bx \"
bx (#
bx *"
b0 $"
bx 2"
bx ?"
bx [
bx 1"
bx ]"
bx )#
bx @"
b0 :"
0r
bx F
bx `
bx A"
bx 8#
bx ?#
b11010111 =#
bx C
bx X
bx B"
bx O"
bx E#
bx L#
b11111110 J#
bx A
bx W
bx P"
bx R#
bx Y#
b10100010 W#
1P
#30000
0P
0S
#35000
b10100010 A
b10100010 W
b10100010 P"
b10100010 R#
b10100010 Y#
b11111110 C
b11111110 X
b11111110 B"
b11111110 O"
b11111110 E#
b11111110 L#
b11010111 F
b11010111 `
b11010111 A"
b11010111 8#
b11010111 ?#
0J"
b0 2"
b0 ?"
b0 z
b0 )"
1P
#40000
0P
1S
#45000
b1 b
b1 L"
b1 N"
1F"
1J"
1P
#50000
0P
0S
#55000
b1 G"
0J"
1P
#60000
0P
#65000
b10 G"
1P
#70000
0P
#75000
b11111110 I"
b11010111 K"
b10 b
b10 L"
b0 G"
b10 N"
1P
#80000
0P
#85000
1a
b111011001 e
b111011001 {
b111011001 H"
1M"
1P
#90000
0P
#95000
b1 B
b1 p
b1 M#
b1 D
b1 o
b1 @#
b1 G
b1 n
b1 3#
b1 b
b1 L"
b1 N"
b1 f
b1 }
b1 E"
0a
0M"
b111011001 !
1P
#100000
0P
#105000
b1 G"
b10110000 =#
b1010 J#
b11100111 W#
1P
#110000
0P
#115000
b11100111 A
b11100111 W
b11100111 P"
b11100111 R#
b11100111 Y#
b1010 C
b1010 X
b1010 B"
b1010 O"
b1010 E#
b1010 L#
b10110000 F
b10110000 `
b10110000 A"
b10110000 8#
b10110000 ?#
b10 G"
1P
#120000
0P
#125000
b1010 I"
b10110000 K"
b10 b
b10 L"
b0 G"
b10 N"
1P
#130000
0P
#135000
1a
b10100110 e
b10100110 {
b10100110 H"
1M"
1P
#140000
0P
#145000
b10 B
b10 p
b10 M#
b10 D
b10 o
b10 @#
b10 G
b10 n
b10 3#
b10100110 "
b1 b
b1 L"
b1 N"
b10 f
b10 }
b10 E"
0a
0M"
1P
#150000
0P
#155000
b10110101 W#
b10101111 J#
b11000101 =#
b1 G"
1P
#160000
0P
#165000
b10 G"
b11000101 F
b11000101 `
b11000101 A"
b11000101 8#
b11000101 ?#
b10101111 C
b10101111 X
b10101111 B"
b10101111 O"
b10101111 E#
b10101111 L#
b10110101 A
b10110101 W
b10110101 P"
b10110101 R#
b10110101 Y#
1P
#170000
0P
#175000
b10101111 I"
b11000101 K"
b10 b
b10 L"
b0 G"
b10 N"
1P
#180000
0P
#185000
1a
b10110 e
b10110 {
b10110 H"
1M"
1P
#190000
0P
#195000
b11 B
b11 p
b11 M#
b11 D
b11 o
b11 @#
b11 G
b11 n
b11 3#
b1 b
b1 L"
b1 N"
b11 f
b11 }
b11 E"
0a
0M"
b10110 #
1P
#200000
0P
#205000
b1 G"
b11100000 =#
b1000110 J#
b1011000 W#
1P
#210000
0P
#215000
b1011000 A
b1011000 W
b1011000 P"
b1011000 R#
b1011000 Y#
b1000110 C
b1000110 X
b1000110 B"
b1000110 O"
b1000110 E#
b1000110 L#
b11100000 F
b11100000 `
b11100000 A"
b11100000 8#
b11100000 ?#
b10 G"
1P
#220000
0P
#225000
b1000110 I"
b11100000 K"
b10 b
b10 L"
b0 G"
b10 N"
1P
#230000
0P
#235000
1a
b10011010 e
b10011010 {
b10011010 H"
1M"
1P
#240000
0P
#245000
b100 B
b100 p
b100 M#
b100 D
b100 o
b100 @#
b100 G
b100 n
b100 3#
b10011010 $
b1 b
b1 L"
b1 N"
b100 f
b100 }
b100 E"
0a
0M"
1P
#250000
0P
#255000
b11101001 W#
b11101000 J#
b1110 =#
b1 G"
1P
#260000
0P
#265000
b10 G"
b1110 F
b1110 `
b1110 A"
b1110 8#
b1110 ?#
b11101000 C
b11101000 X
b11101000 B"
b11101000 O"
b11101000 E#
b11101000 L#
b11101001 A
b11101001 W
b11101001 P"
b11101001 R#
b11101001 Y#
1P
#270000
0P
#275000
b11101000 I"
b1110 K"
b10 b
b10 L"
b0 G"
b10 N"
1P
#280000
0P
#285000
1a
b100100110 e
b100100110 {
b100100110 H"
1M"
1P
#290000
0P
#295000
b101 B
b101 p
b101 M#
b101 D
b101 o
b101 @#
b101 G
b101 n
b101 3#
b1 b
b1 L"
b1 N"
b101 f
b101 }
b101 E"
0a
0M"
b100100110 %
1P
#300000
0P
#305000
b1 G"
b11011101 =#
b100111 J#
b10011 W#
1P
#310000
0P
#315000
b10011 A
b10011 W
b10011 P"
b10011 R#
b10011 Y#
b100111 C
b100111 X
b100111 B"
b100111 O"
b100111 E#
b100111 L#
b11011101 F
b11011101 `
b11011101 A"
b11011101 8#
b11011101 ?#
b10 G"
1P
#320000
0P
#325000
b100111 I"
b11011101 K"
b10 b
b10 L"
b0 G"
b10 N"
1P
#330000
0P
#335000
1a
b10110110 e
b10110110 {
b10110110 H"
1M"
1P
#340000
0P
#345000
b110 B
b110 p
b110 M#
b110 D
b110 o
b110 @#
b110 G
b110 n
b110 3#
b10110110 &
b1 b
b1 L"
b1 N"
b110 f
b110 }
b110 E"
0a
0M"
1P
#350000
0P
#355000
b101110 W#
b11100010 J#
b11101110 =#
b1 G"
1P
#360000
0P
#365000
b10 G"
b11101110 F
b11101110 `
b11101110 A"
b11101110 8#
b11101110 ?#
b11100010 C
b11100010 X
b11100010 B"
b11100010 O"
b11100010 E#
b11100010 L#
b101110 A
b101110 W
b101110 P"
b101110 R#
b101110 Y#
1P
#370000
0P
#375000
b11100010 I"
b11101110 K"
b10 b
b10 L"
b0 G"
b10 N"
1P
#380000
0P
#385000
1a
b1100 e
b1100 {
b1100 H"
1M"
1P
#390000
0P
#395000
b111 B
b111 p
b111 M#
b111 D
b111 o
b111 @#
b111 G
b111 n
b111 3#
b1 b
b1 L"
b1 N"
b111 f
b111 }
b111 E"
0a
0M"
b1100 '
1P
#400000
0P
#405000
b1 G"
b10101111 =#
b1010000 J#
b10010100 W#
1P
#410000
0P
#415000
b10010100 A
b10010100 W
b10010100 P"
b10010100 R#
b10010100 Y#
b1010000 C
b1010000 X
b1010000 B"
b1010000 O"
b1010000 E#
b1010000 L#
b10101111 F
b10101111 `
b10101111 A"
b10101111 8#
b10101111 ?#
b10 G"
1P
#420000
0P
#425000
b1010000 I"
b10101111 K"
b10 b
b10 L"
b0 G"
b10 N"
1P
#430000
0P
#435000
1a
b1011111 e
b1011111 {
b1011111 H"
1M"
1P
#440000
0P
#445000
b1000 B
b1000 p
b1000 M#
b1000 D
b1000 o
b1000 @#
b1000 G
b1000 n
b1000 3#
b1011111 (
b1 b
b1 L"
b1 N"
b1000 f
b1000 }
b1000 E"
0a
0M"
1P
#450000
0P
#455000
b10100111 W#
b1011000 J#
b1011111 =#
b1 G"
1P
#460000
0P
#465000
b10 G"
b1011111 F
b1011111 `
b1011111 A"
b1011111 8#
b1011111 ?#
b1011000 C
b1011000 X
b1011000 B"
b1011000 O"
b1011000 E#
b1011000 L#
b10100111 A
b10100111 W
b10100111 P"
b10100111 R#
b10100111 Y#
1P
#470000
0P
#475000
b1011000 I"
b1011111 K"
b10 b
b10 L"
b0 G"
b10 N"
1P
#480000
0P
#485000
1a
b111 e
b111 {
b111 H"
1M"
1P
#490000
0P
#495000
b1001 B
b1001 p
b1001 M#
b1001 D
b1001 o
b1001 @#
b1001 G
b1001 n
b1001 3#
b1 b
b1 L"
b1 N"
b1001 f
b1001 }
b1001 E"
0a
0M"
b111 )
1P
#500000
0P
#505000
b1 G"
b1101111 =#
b10100 J#
b11100011 W#
1P
#510000
0P
#515000
b11100011 A
b11100011 W
b11100011 P"
b11100011 R#
b11100011 Y#
b10100 C
b10100 X
b10100 B"
b10100 O"
b10100 E#
b10100 L#
b1101111 F
b1101111 `
b1101111 A"
b1101111 8#
b1101111 ?#
b10 G"
1P
#520000
0P
#525000
b10100 I"
b1101111 K"
b10 b
b10 L"
b0 G"
b10 N"
1P
#530000
0P
#535000
1a
b1011011 e
b1011011 {
b1011011 H"
1M"
1P
#540000
0P
#545000
b1010 B
b1010 p
b1010 M#
b1010 D
b1010 o
b1010 @#
b1010 G
b1010 n
b1010 3#
b1011011 *
b1 b
b1 L"
b1 N"
b1010 f
b1010 }
b1010 E"
0a
0M"
1P
#550000
0P
#555000
b10011110 W#
b111011 J#
b10011001 =#
b1 G"
1P
#560000
0P
#565000
b10 G"
b10011001 F
b10011001 `
b10011001 A"
b10011001 8#
b10011001 ?#
b111011 C
b111011 X
b111011 B"
b111011 O"
b111011 E#
b111011 L#
b10011110 A
b10011110 W
b10011110 P"
b10011110 R#
b10011110 Y#
1P
#570000
0P
#575000
b111011 I"
b10011001 K"
b10 b
b10 L"
b0 G"
b10 N"
1P
#580000
0P
#585000
1a
b1011110 e
b1011110 {
b1011110 H"
1M"
1P
#590000
0P
#595000
b1011 B
b1011 p
b1011 M#
b1011 D
b1011 o
b1011 @#
b1011 G
b1011 n
b1011 3#
b1 b
b1 L"
b1 N"
b1011 f
b1011 }
b1011 E"
0a
0M"
b1011110 +
1P
#600000
0P
#605000
b1 G"
b1011110 =#
b10011100 J#
b1000010 W#
1P
#610000
0P
#615000
b1000010 A
b1000010 W
b1000010 P"
b1000010 R#
b1000010 Y#
b10011100 C
b10011100 X
b10011100 B"
b10011100 O"
b10011100 E#
b10011100 L#
b1011110 F
b1011110 `
b1011110 A"
b1011110 8#
b1011110 ?#
b10 G"
1P
#620000
0P
#625000
b10011100 I"
b1011110 K"
b10 b
b10 L"
b0 G"
b10 N"
1P
#630000
0P
#635000
1a
b111000010 e
b111000010 {
b111000010 H"
1M"
1P
#640000
0P
