gradient.vcd
$date
	Sun Dec 10 02:08:08 2023
$end
$version
	Icarus Verilog
$end
$timescale
	1ps
$end
$scope module gradient_tb $end
$var wire 1 ! y_write_valid $end
$var wire 12 " y_write_addr [11:0] $end
$var wire 8 # y_pixel_out [7:0] $end
$var wire 1 $ x_write_valid $end
$var wire 12 % x_write_addr [11:0] $end
$var wire 8 & x_pixel_out [7:0] $end
$var wire 1 ' read_addr_valid $end
$var wire 12 ( read_addr [11:0] $end
$var wire 8 ) pixel_in [7:0] $end
$var wire 1 * gradient_done $end
$var parameter 32 + BIT_DEPTH $end
$var parameter 32 , HEIGHT $end
$var parameter 32 - WIDTH $end
$var reg 1 . clk_in $end
$var reg 1 / rst_in $end
$var reg 1 0 start_in $end
$scope module gradient $end
$var wire 1 . clk_in $end
$var wire 1 / rst_in $end
$var wire 1 0 start_in $end
$var wire 8 1 ext_pixel_in [7:0] $end
$var parameter 32 2 BIT_DEPTH $end
$var parameter 32 3 HEIGHT $end
$var parameter 32 4 WIDTH $end
$var reg 1 5 busy $end
$var reg 6 6 center_addr_x [5:0] $end
$var reg 6 7 center_addr_y [5:0] $end
$var reg 12 8 ext_read_addr [11:0] $end
$var reg 1 ' ext_read_addr_valid $end
$var reg 2 9 ext_read_addr_valid_pipe [1:0] $end
$var reg 1 * gradient_done $end
$var reg 9 : pixel1_signed [8:0] $end
$var reg 9 ; pixel2_signed [8:0] $end
$var reg 8 < x_pixel_out [7:0] $end
$var reg 12 = x_write_addr [11:0] $end
$var reg 1 $ x_write_valid $end
$var reg 8 > y_pixel_out [7:0] $end
$var reg 12 ? y_write_addr [11:0] $end
$var reg 1 ! y_write_valid $end
$var integer 32 @ state [31:0] $end
$upscope $end
$scope module image $end
$var wire 12 A addra [11:0] $end
$var wire 1 . clka $end
$var wire 8 B dina [7:0] $end
$var wire 1 ' ena $end
$var wire 1 C regcea $end
$var wire 1 / rsta $end
$var wire 1 D wea $end
$var wire 8 E douta [7:0] $end
$var parameter 112 F INIT_FILE $end
$var parameter 64 G RAM_DEPTH $end
$var parameter 128 H RAM_PERFORMANCE $end
$var parameter 32 I RAM_WIDTH $end
$var reg 8 J ram_data [7:0] $end
$scope function clogb2 $end
$var integer 32 K depth [31:0] $end
$upscope $end
$scope begin output_register $end
$var reg 8 L douta_reg [7:0] $end
$upscope $end
$scope begin use_init_file $end
$upscope $end
$upscope $end
$upscope $end
$enddefinitions $end
$comment Show the parameter values. $end
$dumpall
b1000 I
b1001000010010010100011101001000010111110101000001000101010100100100011001001111010100100100110101000001010011100100001101000101 H
b1000000000000 G
b111010101110100011010010110110000101111011010010110110101100001011001110110010100101110011011010110010101101101 F
b1000000 4
b1000000 3
b1000 2
b1000000 -
b1000000 ,
b1000 +
$end
#0
$dumpvars
b0 L
bx K
b0 J
b0 E
0D
1C
b0 B
bx A
b0 @
bx ?
bx >
bx =
bx <
bx ;
bx :
bx 9
bx 8
bx 7
bx 6
x5
b0 1
00
0/
0.
x*
b0 )
bx (
x'
bx &
bx %
x$
bx #
bx "
x!
$end
#5000
1.
#10000
0.
1/
#15000
0*
b0 7
b0 6
05
1.
#20000
0/
1.
#25000
0.
#30000
b1 @
1.
10
#35000
0.
#40000
1'
b0 (
b0 8
b0 A
1.
00
#45000
0.
#50000
b10 @
b0 :
1'
b11111110 J
b11 9
1.
#55000
0.
#60000
b11111110 )
b11111110 1
b11111110 E
b11111110 L
b11 @
b0 ;
b1 (
b1 8
b1 A
1'
1.
#65000
0.
#70000
b100 @
1$
b0 &
b0 <
b0 %
b0 =
0'
1.
#75000
0.
#80000
b101 @
b11111110 :
1'
b0 (
b0 8
b0 A
0$
b0 9
1.
#85000
0.
#90000
b110 @
b11111110 ;
b1000000 (
b1000000 8
b1000000 A
1'
b11 9
1.
#95000
0.
#100000
b1 @
b1 6
1!
b0 #
b0 >
b0 "
b0 ?
0'
1.
#105000
0.
#110000
1'
b0 (
b0 8
b0 A
0!
b0 9
1.
#115000
0.
#120000
1'
b11 9
1.
#125000
0.
#130000
b10 @
1'
1.
#135000
0.
#140000
b11 @
b10 (
b10 8
b10 A
1'
1.
#145000
0.
#150000
b100 @
1$
b1 %
b1 =
0'
1.
#155000
0.
#160000
b101 @
1'
b1 (
b1 8
b1 A
0$
b0 9
1.
#165000
0.
#170000
b110 @
b1000001 (
b1000001 8
b1000001 A
1'
b11 9
1.
#175000
0.
#180000
b1 @
b10 6
1!
b1 "
b1 ?
0'
1.
#185000
0.
#190000
1'
b1 (
b1 8
b1 A
0!
b0 9
1.
#195000
0.
#200000
1'
b11 9
1.
#205000
0.
#210000
b10 @
1'
1.
#215000
0.
#220000
b11 @
b11 (
b11 8
b11 A
1'
1.
#225000
0.
#230000
b100 @
1$
b10 %
b10 =
0'
1.
#235000
0.
#240000
b101 @
1'
b10 (
b10 8
b10 A
0$
b0 9
1.
#245000
0.
#250000
b110 @
b1000010 (
b1000010 8
b1000010 A
1'
b11 9
1.
#255000
0.
#260000
b1 @
b11 6
1!
b10 "
b10 ?
0'
1.
#265000
0.
#270000
1'
b10 (
b10 8
b10 A
0!
b0 9
1.
#275000
0.
#280000
1'
b11 9
1.
#285000
0.
#290000
b10 @
1'
1.
#295000
0.
#300000
b11 @
b100 (
b100 8
b100 A
1'
1.
#305000
0.
#310000
b100 @
1$
b11 %
b11 =
0'
1.
#315000
0.
#320000
b101 @
1'
b11 (
b11 8
b11 A
0$
b0 9
1.
#325000
0.
#330000
b110 @
b1000011 (
b1000011 8
b1000011 A
1'
b11 9
1.
#335000
0.
#340000
b1 @
b100 6
1!
b11 "
b11 ?
0'
1.
#345000
0.
#350000
1'
b11 (
b11 8
b11 A
0!
b0 9
1.
#355000
0.
#360000
1'
b11 9
1.
#365000
0.
#370000
b10 @
1'
1.
#375000
0.
#380000
b11 @
b101 (
b101 8
b101 A
1'
1.
#385000
0.
#390000
b100 @
1$
b100 %
b100 =
0'
1.
#395000
0.
#400000
b101 @
1'
b100 (
b100 8
b100 A
0$
b0 9
1.
#405000
0.
#410000
b110 @
b1000100 (
b1000100 8
b1000100 A
1'
b11 9
1.
#415000
0.
#420000
b1 @
b101 6
1!
b100 "
b100 ?
0'
1.
#425000
0.
#430000
1'
b100 (
b100 8
b100 A
0!
b0 9
1.
#435000
0.
#440000
1'
b11 9
1.
#445000
0.
#450000
b10 @
1'
1.
#455000
0.
#460000
b11 @
b110 (
b110 8
b110 A
1'
1.
#465000
0.
#470000
b100 @
1$
b101 %
b101 =
0'
1.
#475000
0.
#480000
b101 @
1'
b101 (
b101 8
b101 A
0$
b0 9
1.
#485000
0.
#490000
b110 @
b1000101 (
b1000101 8
b1000101 A
1'
b11 9
1.
#495000
0.
#500000
b1 @
b110 6
1!
b101 "
b101 ?
0'
1.
#505000
0.
#510000
1'
b101 (
b101 8
b101 A
0!
b0 9
1.
#515000
0.
#520000
1'
b11 9
1.
#525000
0.
#530000
b10 @
1'
1.
#535000
0.
#540000
b11 @
b111 (
b111 8
b111 A
1'
1.
#545000
0.
#550000
b100 @
1$
b110 %
b110 =
0'
1.
#555000
0.
#560000
b101 @
1'
b110 (
b110 8
b110 A
0$
b0 9
1.
#565000
0.
#570000
b110 @
b1000110 (
b1000110 8
b1000110 A
1'
b11 9
1.
#575000
0.
#580000
b1 @
b111 6
1!
b110 "
b110 ?
0'
1.
#585000
0.
#590000
1'
b110 (
b110 8
b110 A
0!
b0 9
1.
#595000
0.
#600000
1'
b11 9
1.
#605000
0.
#610000
b10 @
1'
1.
#615000
0.
#620000
b11 @
b1000 (
b1000 8
b1000 A
1'
1.
#625000
0.
#630000
b100 @
1$
b111 %
b111 =
0'
1.
#635000
0.
#640000
b101 @
1'
b111 (
b111 8
b111 A
0$
b0 9
1.
#645000
0.
#650000
b110 @
b1000111 (
b1000111 8
b1000111 A
1'
b11 9
1.
#655000
0.
#660000
b1 @
b1000 6
1!
b111 "
b111 ?
0'
1.
#665000
0.
#670000
1'
b111 (
b111 8
b111 A
0!
b0 9
1.
#675000
0.
#680000
1'
b11 9
1.
#685000
0.
#690000
b10 @
1'
1.
#695000
0.
#700000
b11 @
b1001 (
b1001 8
b1001 A
1'
1.
#705000
0.
#710000
b100 @
1$
b1000 %
b1000 =
0'
1.
#715000
0.
#720000
b101 @
1'
b1000 (
b1000 8
b1000 A
0$
b0 9
1.
#725000
0.
#730000
b110 @
b1001000 (
b1001000 8
b1001000 A
1'
b11 9
1.
#735000
0.
#740000
b1 @
b1001 6
1!
b1000 "
b1000 ?
0'
1.
#745000
0.
#750000
1'
b1000 (
b1000 8
b1000 A
0!
b0 9
1.
#755000
0.
#760000
1'
b11 9
1.
#765000
0.
#770000
b10 @
1'
1.
#775000
0.
#780000
b11 @
b1010 (
b1010 8
b1010 A
1'
1.
#785000
0.
#790000
b100 @
1$
b1001 %
b1001 =
0'
1.
#795000
0.
#800000
b101 @
1'
b1001 (
b1001 8
b1001 A
0$
b0 9
1.
#805000
0.
#810000
b110 @
b1001001 (
b1001001 8
b1001001 A
1'
b11 9
1.
#815000
0.
#820000
b1 @
b1010 6
1!
b1001 "
b1001 ?
0'
1.
#825000
0.
#830000
1'
b1001 (
b1001 8
b1001 A
0!
b0 9
1.
#835000
0.
#840000
1'
b11 9
1.
#845000
0.
#850000
b10 @
1'
1.
#855000
0.
#860000
b11 @
b1011 (
b1011 8
b1011 A
1'
1.
#865000
0.
#870000
b100 @
1$
b1010 %
b1010 =
0'
1.
#875000
0.
#880000
b101 @
1'
b1010 (
b1010 8
b1010 A
0$
b0 9
1.
#885000
0.
#890000
b110 @
b1001010 (
b1001010 8
b1001010 A
1'
b11 9
1.
#895000
0.
#900000
b1 @
b1011 6
1!
b1010 "
b1010 ?
0'
1.
#905000
0.
#910000
1'
b1010 (
b1010 8
b1010 A
0!
b0 9
1.
#915000
0.
#920000
1'
b11 9
1.
#925000
0.
#930000
b10 @
1'
1.
#935000
0.
#940000
b11 @
b1100 (
b1100 8
b1100 A
1'
1.
#945000
0.
#950000
b100 @
1$
b1011 %
b1011 =
0'
1.
#955000
0.
#960000
b101 @
1'
b1011 (
b1011 8
b1011 A
0$
b0 9
1.
#965000
0.
#970000
b110 @
b1001011 (
b1001011 8
b1001011 A
1'
b11 9
1.
#975000
0.
#980000
b1 @
b1100 6
1!
b1011 "
b1011 ?
0'
1.
#985000
0.
#990000
1'
b1011 (
b1011 8
b1011 A
0!
b0 9
1.
#995000
0.
#1000000
1'
b11 9
1.
#1005000
0.
#1010000
b10 @
1'
1.
#1015000
0.
#1020000
b11 @
b1101 (
b1101 8
b1101 A
1'
1.
#1025000
0.
#1030000
b100 @
1$
b1100 %
b1100 =
0'
1.
#1035000
0.
#1040000
b101 @
1'
b1100 (
b1100 8
b1100 A
0$
b0 9
1.
#1045000
0.
#1050000
b110 @
b1001100 (
b1001100 8
b1001100 A
1'
b11 9
1.
#1055000
0.
#1060000
b1 @
b1101 6
1!
b1100 "
b1100 ?
0'
1.
#1065000
0.
#1070000
1'
b1100 (
b1100 8
b1100 A
0!
b0 9
1.
#1075000
0.
#1080000
1'
b11 9
1.
#1085000
0.
#1090000
b10 @
1'
1.
#1095000
0.
#1100000
b11 @
b1110 (
b1110 8
b1110 A
1'
1.
#1105000
0.
#1110000
b100 @
1$
b1101 %
b1101 =
0'
1.
#1115000
0.
#1120000
b101 @
1'
b1101 (
b1101 8
b1101 A
0$
b0 9
1.
#1125000
0.
#1130000
b110 @
b1001101 (
b1001101 8
b1001101 A
1'
b11 9
1.
#1135000
0.
#1140000
b1 @
b1110 6
1!
b1101 "
b1101 ?
0'
1.
#1145000
0.
#1150000
1'
b1101 (
b1101 8
b1101 A
0!
b0 9
1.
#1155000
0.
#1160000
1'
b11 9
1.
#1165000
0.
#1170000
b10 @
1'
1.
#1175000
0.
#1180000
b11 @
b1111 (
b1111 8
b1111 A
1'
1.
#1185000
0.
#1190000
b100 @
1$
b1110 %
b1110 =
0'
1.
#1195000
0.
#1200000
b101 @
1'
b1110 (
b1110 8
b1110 A
0$
b0 9
1.
#1205000
0.
#1210000
b110 @
b1001110 (
b1001110 8
b1001110 A
1'
b11 9
1.
#1215000
0.
#1220000
b1 @
b1111 6
1!
b1110 "
b1110 ?
0'
1.
#1225000
0.
#1230000
1'
b1110 (
b1110 8
b1110 A
0!
b0 9
1.
#1235000
0.
#1240000
1'
b11 9
1.
#1245000
0.
#1250000
b10 @
1'
1.
#1255000
0.
#1260000
b11 @
b10000 (
b10000 8
b10000 A
1'
1.
#1265000
0.
#1270000
b100 @
1$
b1111 %
b1111 =
0'
1.
#1275000
0.
#1280000
b101 @
1'
b1111 (
b1111 8
b1111 A
0$
b0 9
1.
#1285000
0.
#1290000
b110 @
b1001111 (
b1001111 8
b1001111 A
1'
b11 9
1.
#1295000
0.
#1300000
b1 @
b10000 6
1!
b1111 "
b1111 ?
0'
1.
#1305000
0.
#1310000
1'
b1111 (
b1111 8
b1111 A
0!
b0 9
1.
#1315000
0.
#1320000
1'
b11 9
1.
#1325000
0.
#1330000
b10 @
1'
1.
#1335000
0.
#1340000
b11 @
b10001 (
b10001 8
b10001 A
1'
1.
#1345000
0.
#1350000
b100 @
1$
b10000 %
b10000 =
0'
1.
#1355000
0.
#1360000
b101 @
1'
b10000 (
b10000 8
b10000 A
0$
b0 9
1.
#1365000
0.
#1370000
b110 @
b1010000 (
b1010000 8
b1010000 A
1'
b11 9
1.
#1375000
0.
#1380000
b1 @
b10001 6
1!
b10000 "
b10000 ?
0'
1.
#1385000
0.
#1390000
1'
b10000 (
b10000 8
b10000 A
0!
b0 9
1.
#1395000
0.
#1400000
1'
b11 9
1.
#1405000
0.
#1410000
b10 @
1'
1.
#1415000
0.
#1420000
b11 @
b10010 (
b10010 8
b10010 A
1'
1.
#1425000
0.
#1430000
b100 @
1$
b10001 %
b10001 =
0'
1.
#1435000
0.
#1440000
b101 @
1'
b10001 (
b10001 8
b10001 A
0$
b0 9
1.
#1445000
0.
#1450000
b110 @
b1010001 (
b1010001 8
b1010001 A
1'
b11 9
1.
#1455000
0.
#1460000
b1 @
b10010 6
1!
b10001 "
b10001 ?
0'
1.
#1465000
0.
#1470000
1'
b10001 (
b10001 8
b10001 A
0!
b0 9
1.
#1475000
0.
#1480000
1'
b11 9
1.
#1485000
0.
#1490000
b10 @
1'
1.
#1495000
0.
#1500000
b11 @
b10011 (
b10011 8
b10011 A
1'
1.
#1505000
0.
#1510000
b100 @
1$
b10010 %
b10010 =
0'
1.
#1515000
0.
#1520000
b101 @
1'
b10010 (
b10010 8
b10010 A
0$
b0 9
1.
#1525000
0.
#1530000
b110 @
b1010010 (
b1010010 8
b1010010 A
1'
b11 9
1.
#1535000
0.
#1540000
b1 @
b10011 6
1!
b10010 "
b10010 ?
0'
1.
#1545000
0.
#1550000
1'
b10010 (
b10010 8
b10010 A
0!
b0 9
1.
#1555000
0.
#1560000
1'
b11 9
1.
#1565000
0.
#1570000
b10 @
1'
1.
#1575000
0.
#1580000
b11 @
b10100 (
b10100 8
b10100 A
1'
1.
#1585000
0.
#1590000
b100 @
1$
b10011 %
b10011 =
0'
1.
#1595000
0.
#1600000
b101 @
1'
b10011 (
b10011 8
b10011 A
0$
b0 9
1.
#1605000
0.
#1610000
b110 @
b1010011 (
b1010011 8
b1010011 A
1'
b11 9
1.
#1615000
0.
#1620000
b1 @
b10100 6
1!
b10011 "
b10011 ?
0'
1.
#1625000
0.
#1630000
1'
b10011 (
b10011 8
b10011 A
0!
b0 9
1.
#1635000
0.
#1640000
1'
b11 9
1.
#1645000
0.
#1650000
b10 @
1'
1.
#1655000
0.
#1660000
b11 @
b10101 (
b10101 8
b10101 A
1'
1.
#1665000
0.
#1670000
b100 @
1$
b10100 %
b10100 =
0'
1.
#1675000
0.
#1680000
b101 @
1'
b10100 (
b10100 8
b10100 A
0$
b0 9
1.
#1685000
0.
#1690000
b110 @
b1010100 (
b1010100 8
b1010100 A
1'
b11 9
1.
#1695000
0.
#1700000
b1 @
b10101 6
1!
b10100 "
b10100 ?
0'
1.
#1705000
0.
#1710000
1'
b10100 (
b10100 8
b10100 A
0!
b0 9
1.
#1715000
0.
#1720000
1'
b11 9
1.
#1725000
0.
#1730000
b10 @
1'
1.
#1735000
0.
#1740000
b11 @
b10110 (
b10110 8
b10110 A
1'
1.
#1745000
0.
#1750000
b100 @
1$
b10101 %
b10101 =
0'
1.
#1755000
0.
#1760000
b101 @
1'
b10101 (
b10101 8
b10101 A
0$
b0 9
1.
#1765000
0.
#1770000
b110 @
b1010101 (
b1010101 8
b1010101 A
1'
b11 9
1.
#1775000
0.
#1780000
b1 @
b10110 6
1!
b10101 "
b10101 ?
0'
1.
#1785000
0.
#1790000
1'
b10101 (
b10101 8
b10101 A
0!
b0 9
1.
#1795000
0.
#1800000
1'
b11 9
1.
#1805000
0.
#1810000
b10 @
1'
1.
#1815000
0.
#1820000
b11 @
b10111 (
b10111 8
b10111 A
1'
1.
#1825000
0.
#1830000
b100 @
1$
b10110 %
b10110 =
0'
1.
#1835000
0.
#1840000
b101 @
1'
b10110 (
b10110 8
b10110 A
0$
b0 9
1.
#1845000
0.
#1850000
b110 @
b1010110 (
b1010110 8
b1010110 A
1'
b11 9
1.
#1855000
0.
#1860000
b1 @
b10111 6
1!
b10110 "
b10110 ?
0'
1.
#1865000
0.
#1870000
1'
b10110 (
b10110 8
b10110 A
0!
b0 9
1.
#1875000
0.
#1880000
1'
b11 9
1.
#1885000
0.
#1890000
b10 @
1'
1.
#1895000
0.
#1900000
b11 @
b11000 (
b11000 8
b11000 A
1'
1.
#1905000
0.
#1910000
b100 @
1$
b10111 %
b10111 =
0'
1.
#1915000
0.
#1920000
b101 @
1'
b10111 (
b10111 8
b10111 A
0$
b0 9
1.
#1925000
0.
#1930000
b110 @
b1010111 (
b1010111 8
b1010111 A
1'
b11 9
1.
#1935000
0.
#1940000
b1 @
b11000 6
1!
b10111 "
b10111 ?
0'
1.
#1945000
0.
#1950000
1'
b10111 (
b10111 8
b10111 A
0!
b0 9
1.
#1955000
0.
#1960000
1'
b11 9
1.
#1965000
0.
#1970000
b10 @
1'
1.
#1975000
0.
#1980000
b11 @
b11001 (
b11001 8
b11001 A
1'
1.
#1985000
0.
#1990000
b100 @
1$
b11000 %
b11000 =
0'
1.
#1995000
0.
#2000000
b101 @
1'
b11000 (
b11000 8
b11000 A
0$
b0 9
1.
#2005000
0.
#2010000
b110 @
b1011000 (
b1011000 8
b1011000 A
1'
b11 9
1.
#2015000
0.
#2020000
b1 @
b11001 6
1!
b11000 "
b11000 ?
0'
1.
#2025000
0.
#2030000
1'
b11000 (
b11000 8
b11000 A
0!
b0 9
1.
#2035000
0.
#2040000
1'
b11 9
1.
#2045000
0.
#2050000
b10 @
1'
1.
#2055000
0.
#2060000
b11 @
b11010 (
b11010 8
b11010 A
1'
1.
#2065000
0.
#2070000
b100 @
1$
b11001 %
b11001 =
0'
1.
#2075000
0.
#2080000
b101 @
1'
b11001 (
b11001 8
b11001 A
0$
b0 9
1.
#2085000
0.
#2090000
b110 @
b1011001 (
b1011001 8
b1011001 A
1'
b11 9
1.
#2095000
0.
#2100000
b1 @
b11010 6
1!
b11001 "
b11001 ?
0'
1.
#2105000
0.
#2110000
1'
b11001 (
b11001 8
b11001 A
0!
b0 9
1.
#2115000
0.
#2120000
1'
b11 9
1.
#2125000
0.
#2130000
b10 @
1'
1.
#2135000
0.
#2140000
b11 @
b11011 (
b11011 8
b11011 A
1'
1.
#2145000
0.
#2150000
b100 @
1$
b11010 %
b11010 =
0'
1.
#2155000
0.
#2160000
b101 @
1'
b11010 (
b11010 8
b11010 A
0$
b0 9
1.
#2165000
0.
#2170000
b110 @
b1011010 (
b1011010 8
b1011010 A
1'
b11 9
1.
#2175000
0.
#2180000
b1 @
b11011 6
1!
b11010 "
b11010 ?
0'
1.
#2185000
0.
#2190000
1'
b11010 (
b11010 8
b11010 A
0!
b0 9
1.
#2195000
0.
#2200000
1'
b11 9
1.
#2205000
0.
#2210000
b10 @
1'
1.
#2215000
0.
#2220000
b11 @
b11100 (
b11100 8
b11100 A
1'
1.
#2225000
0.
#2230000
b100 @
1$
b11011 %
b11011 =
0'
1.
#2235000
0.
#2240000
b101 @
1'
b11011 (
b11011 8
b11011 A
0$
b0 9
1.
#2245000
0.
#2250000
b110 @
b1011011 (
b1011011 8
b1011011 A
1'
b11 9
1.
#2255000
0.
#2260000
b1 @
b11100 6
1!
b11011 "
b11011 ?
0'
1.
#2265000
0.
#2270000
1'
b11011 (
b11011 8
b11011 A
0!
b0 9
1.
#2275000
0.
#2280000
1'
b11 9
1.
#2285000
0.
#2290000
b10 @
1'
1.
#2295000
0.
#2300000
b11 @
b11101 (
b11101 8
b11101 A
1'
1.
#2305000
0.
#2310000
b100 @
1$
b11100 %
b11100 =
0'
1.
#2315000
0.
#2320000
b101 @
1'
b11100 (
b11100 8
b11100 A
0$
b0 9
1.
#2325000
0.
#2330000
b110 @
b1011100 (
b1011100 8
b1011100 A
1'
b11 9
1.
#2335000
0.
#2340000
b1 @
b11101 6
1!
b11100 "
b11100 ?
0'
1.
#2345000
0.
#2350000
1'
b11100 (
b11100 8
b11100 A
0!
b0 9
1.
#2355000
0.
#2360000
1'
b11 9
1.
#2365000
0.
#2370000
b10 @
1'
1.
#2375000
0.
#2380000
b11 @
b11110 (
b11110 8
b11110 A
1'
1.
#2385000
0.
#2390000
b100 @
1$
b11101 %
b11101 =
0'
b11110010 J
1.
#2395000
0.
#2400000
b11110010 )
b11110010 1
b11110010 E
b11110010 L
b101 @
1'
b11101 (
b11101 8
b11101 A
0$
b0 9
1.
#2405000
0.
#2410000
b110 @
b11110010 ;
b1011101 (
b1011101 8
b1011101 A
1'
b11111110 J
b11 9
1.
#2415000
0.
#2420000
b11111110 )
b11111110 1
b11111110 E
b11111110 L
b11011001 J
b1 @
b11110 6
1!
b11111010 #
b11111010 >
b11101 "
b11101 ?
0'
1.
#2425000
0.
#2430000
1'
b11101 (
b11101 8
b11101 A
0!
b11011001 )
b11011001 1
b11011001 E
b11011001 L
b0 9
1.
#2435000
0.
#2440000
b11111110 J
1'
b11 9
1.
#2445000
0.
#2450000
b10 @
b11011001 :
1'
b11111110 )
b11111110 1
b11111110 E
b11111110 L
1.
#2455000
0.
#2460000
b11 @
b11111110 ;
b11111 (
b11111 8
b11111 A
1'
1.
#2465000
0.
#2470000
b100 @
1$
b10010 &
b10010 <
b11110 %
b11110 =
0'
1.
#2475000
0.
#2480000
b101 @
b11111110 :
1'
b11110 (
b11110 8
b11110 A
0$
b0 9
1.
#2485000
0.
#2490000
b110 @
b1011110 (
b1011110 8
b1011110 A
1'
b11110010 J
b11 9
1.
#2495000
0.
#2500000
b11110010 )
b11110010 1
b11110010 E
b11110010 L
b10001110 J
b1 @
b11111 6
1!
b0 #
b0 >
b11110 "
b11110 ?
0'
1.
#2505000
0.
#2510000
1'
b11110 (
b11110 8
b11110 A
0!
b10001110 )
b10001110 1
b10001110 E
b10001110 L
b0 9
1.
#2515000
0.
#2520000
b11110010 J
1'
b11 9
1.
#2525000
0.
#2530000
b10 @
b10001110 :
1'
b11110010 )
b11110010 1
b11110010 E
b11110010 L
1.
#2535000
0.
#2540000
b11 @
b11110010 ;
b100000 (
b100000 8
b100000 A
1'
1.
#2545000
0.
#2550000
b100 @
1$
b110010 &
b110010 <
b11111 %
b11111 =
0'
b11111110 J
1.
#2555000
0.
#2560000
b11111110 )
b11111110 1
b11111110 E
b11111110 L
b101 @
b11110010 :
1'
b11111 (
b11111 8
b11111 A
0$
b0 9
1.
#2565000
0.
#2570000
b110 @
b11111110 ;
b1011111 (
b1011111 8
b1011111 A
1'
b11 9
1.
#2575000
0.
#2580000
b11100001 J
b1 @
b100000 6
1!
b110 #
b110 >
b11111 "
b11111 ?
0'
1.
#2585000
0.
#2590000
1'
b11111 (
b11111 8
b11111 A
0!
b11100001 )
b11100001 1
b11100001 E
b11100001 L
b0 9
1.
#2595000
0.
#2600000
b11111110 J
1'
b11 9
1.
#2605000
0.
#2610000
b10 @
b11100001 :
1'
b11111110 )
b11111110 1
b11111110 E
b11111110 L
1.
#2615000
0.
#2620000
b11 @
b100001 (
b100001 8
b100001 A
1'
1.
#2625000
0.
#2630000
b100 @
1$
b1110 &
b1110 <
b100000 %
b100000 =
0'
1.
#2635000
0.
#2640000
b101 @
b11111110 :
1'
b100000 (
b100000 8
b100000 A
0$
b0 9
1.
#2645000
0.
#2650000
b110 @
b1100000 (
b1100000 8
b1100000 A
1'
b11 9
1.
#2655000
0.
#2660000
b1 @
b100001 6
1!
b0 #
b0 >
b100000 "
b100000 ?
0'
1.
#2665000
0.
#2670000
1'
b100000 (
b100000 8
b100000 A
0!
b0 9
1.
#2675000
0.
#2680000
1'
b11 9
1.
#2685000
0.
#2690000
b10 @
1'
1.
#2695000
0.
#2700000
b11 @
b100010 (
b100010 8
b100010 A
1'
1.
#2705000
0.
#2710000
b100 @
1$
b0 &
b0 <
b100001 %
b100001 =
0'
1.
#2715000
0.
#2720000
b101 @
1'
b100001 (
b100001 8
b100001 A
0$
b0 9
1.
#2725000
0.
#2730000
b110 @
b1100001 (
b1100001 8
b1100001 A
1'
b11 9
1.
#2735000
0.
#2740000
b1 @
b100010 6
1!
b100001 "
b100001 ?
0'
1.
#2745000
0.
#2750000
1'
b100001 (
b100001 8
b100001 A
0!
b0 9
1.
#2755000
0.
#2760000
1'
b11 9
1.
#2765000
0.
#2770000
b10 @
1'
1.
#2775000
0.
#2780000
b11 @
b100011 (
b100011 8
b100011 A
1'
1.
#2785000
0.
#2790000
b100 @
1$
b100010 %
b100010 =
0'
1.
#2795000
0.
#2800000
b101 @
1'
b100010 (
b100010 8
b100010 A
0$
b0 9
1.
#2805000
0.
#2810000
b110 @
b1100010 (
b1100010 8
b1100010 A
1'
b11 9
1.
#2815000
0.
#2820000
b1 @
b100011 6
1!
b100010 "
b100010 ?
0'
1.
#2825000
0.
#2830000
1'
b100010 (
b100010 8
b100010 A
0!
b0 9
1.
#2835000
0.
#2840000
1'
b11 9
1.
#2845000
0.
#2850000
b10 @
1'
1.
#2855000
0.
#2860000
b11 @
b100100 (
b100100 8
b100100 A
1'
1.
#2865000
0.
#2870000
b100 @
1$
b100011 %
b100011 =
0'
1.
#2875000
0.
#2880000
b101 @
1'
b100011 (
b100011 8
b100011 A
0$
b0 9
1.
#2885000
0.
#2890000
b110 @
b1100011 (
b1100011 8
b1100011 A
1'
b11 9
1.
#2895000
0.
#2900000
b1 @
b100100 6
1!
b100011 "
b100011 ?
0'
1.
#2905000
0.
#2910000
1'
b100011 (
b100011 8
b100011 A
0!
b0 9
1.
#2915000
0.
#2920000
1'
b11 9
1.
#2925000
0.
#2930000
b10 @
1'
1.
#2935000
0.
#2940000
b11 @
b100101 (
b100101 8
b100101 A
1'
1.
#2945000
0.
#2950000
b100 @
1$
b100100 %
b100100 =
0'
1.
#2955000
0.
#2960000
b101 @
1'
b100100 (
b100100 8
b100100 A
0$
b0 9
1.
#2965000
0.
#2970000
b110 @
b1100100 (
b1100100 8
b1100100 A
1'
b11 9
1.
#2975000
0.
#2980000
b11011010 J
b1 @
b100101 6
1!
b100100 "
b100100 ?
0'
1.
#2985000
0.
#2990000
1'
b100100 (
b100100 8
b100100 A
0!
b11011010 )
b11011010 1
b11011010 E
b11011010 L
b0 9
1.
#2995000
0.
#3000000
b11111110 J
1'
b11 9
1.
#3005000
0.
#3010000
b10 @
b11011010 :
1'
b11111110 )
b11111110 1
b11111110 E
b11111110 L
1.
#3015000
0.
#3020000
b11 @
b100110 (
b100110 8
b100110 A
1'
1.
#3025000
0.
#3030000
b100 @
1$
b10010 &
b10010 <
b100101 %
b100101 =
0'
b11111101 J
1.
#3035000
0.
#3040000
b11111101 )
b11111101 1
b11111101 E
b11111101 L
b101 @
b11111110 :
1'
b100101 (
b100101 8
b100101 A
0$
b0 9
1.
#3045000
0.
#3050000
b110 @
b11111101 ;
b1100101 (
b1100101 8
b1100101 A
1'
b11111110 J
b11 9
1.
#3055000
0.
#3060000
b11111110 )
b11111110 1
b11111110 E
b11111110 L
b11100001 J
b1 @
b100110 6
1!
b11111111 #
b11111111 >
b100101 "
b100101 ?
0'
1.
#3065000
0.
#3070000
1'
b100101 (
b100101 8
b100101 A
0!
b11100001 )
b11100001 1
b11100001 E
b11100001 L
b0 9
1.
#3075000
0.
#3080000
b11111110 J
1'
b11 9
1.
#3085000
0.
#3090000
b10 @
b11100001 :
1'
b11111110 )
b11111110 1
b11111110 E
b11111110 L
1.
#3095000
0.
#3100000
b11 @
b11111110 ;
b100111 (
b100111 8
b100111 A
1'
1.
#3105000
0.
#3110000
b100 @
1$
b1110 &
b1110 <
b100110 %
b100110 =
0'
1.
#3115000
0.
#3120000
b101 @
b11111110 :
1'
b100110 (
b100110 8
b100110 A
0$
b0 9
1.
#3125000
0.
#3130000
b110 @
b1100110 (
b1100110 8
b1100110 A
1'
b11111101 J
b11 9
1.
#3135000
0.
#3140000
b11111101 )
b11111101 1
b11111101 E
b11111101 L
b1 @
b100111 6
1!
b0 #
b0 >
b100110 "
b100110 ?
0'
1.
#3145000
0.
#3150000
1'
b100110 (
b100110 8
b100110 A
0!
b0 9
1.
#3155000
0.
#3160000
1'
b11 9
1.
#3165000
0.
#3170000
b10 @
b11111101 :
1'
1.
#3175000
0.
#3180000
b11 @
b11111101 ;
b101000 (
b101000 8
b101000 A
1'
1.
#3185000
0.
#3190000
b100 @
1$
b0 &
b0 <
b100111 %
b100111 =
0'
b11111110 J
1.
#3195000
0.
#3200000
b11111110 )
b11111110 1
b11111110 E
b11111110 L
b101 @
1'
b100111 (
b100111 8
b100111 A
0$
b0 9
1.
#3205000
0.
