img_resize_full.vcd
$date
	Fri Dec 01 04:30:54 2023
$end
$version
	Icarus Verilog
$end
$timescale
	1ps
$end
$scope module blur_img_tb $end
$var wire 1 ! write_valid $end
$var wire 10 " write_addr [9:0] $end
$var wire 1 # resize_done $end
$var wire 1 $ read_addr_valid $end
$var wire 12 % read_addr [11:0] $end
$var wire 8 & pixel_out [7:0] $end
$var wire 8 ' pixel_in [7:0] $end
$var wire 6 ( center_addr_y [5:0] $end
$var wire 6 ) center_addr_x [5:0] $end
$var parameter 32 * BIT_DEPTH $end
$var parameter 32 + HEIGHT $end
$var parameter 32 , WIDTH $end
$var reg 1 - clk_in $end
$var reg 1 . rst_in $end
$var reg 1 / start_in $end
$scope module image $end
$var wire 1 - clka $end
$var wire 8 0 dina [7:0] $end
$var wire 1 1 regcea $end
$var wire 1 . rsta $end
$var wire 1 2 wea $end
$var wire 1 $ ena $end
$var wire 8 3 douta [7:0] $end
$var wire 12 4 addra [11:0] $end
$var parameter 112 5 INIT_FILE $end
$var parameter 64 6 RAM_DEPTH $end
$var parameter 128 7 RAM_PERFORMANCE $end
$var parameter 32 8 RAM_WIDTH $end
$var reg 8 9 ram_data [7:0] $end
$scope function clogb2 $end
$var integer 32 : depth [31:0] $end
$upscope $end
$scope begin output_register $end
$var reg 8 ; douta_reg [7:0] $end
$upscope $end
$scope begin use_init_file $end
$upscope $end
$upscope $end
$scope module resize $end
$var wire 1 - clk_in $end
$var wire 8 < ext_pixel_in [7:0] $end
$var wire 1 . rst_in $end
$var wire 1 / start_in $end
$var wire 1 ! ext_write_valid $end
$var wire 10 = ext_write_addr [9:0] $end
$var wire 12 > ext_read_addr [11:0] $end
$var wire 8 ? ext_pixel_out [7:0] $end
$var parameter 32 @ BIT_DEPTH $end
$var parameter 32 A OLD_HEIGHT $end
$var parameter 32 B OLD_WIDTH $end
$var reg 1 C busy $end
$var reg 6 D center_addr_x [5:0] $end
$var reg 6 E center_addr_y [5:0] $end
$var reg 1 $ ext_read_addr_valid $end
$var reg 2 F ext_read_addr_valid_pipe [1:0] $end
$var reg 6 G old_center_addr_x_used [5:0] $end
$var reg 6 H old_center_addr_y_used [5:0] $end
$var reg 1 # resize_done $end
$var reg 8 I resize_in [7:0] $end
$var reg 1 J resize_in_valid $end
$scope module downsizer $end
$var wire 1 - clk_in $end
$var wire 8 K data_in [7:0] $end
$var wire 1 J data_valid_in $end
$var wire 6 L data_x_in [5:0] $end
$var wire 6 M data_y_in [5:0] $end
$var wire 1 . rst_in $end
$var parameter 32 N BIT_DEPTH $end
$var parameter 32 O NEW_WIDTH $end
$var reg 10 P data_addr_out [9:0] $end
$var reg 8 Q data_out [7:0] $end
$var reg 1 ! data_valid_out $end
$var reg 1 R done_out $end
$upscope $end
$upscope $end
$upscope $end
$enddefinitions $end
$comment Show the parameter values. $end
$dumpall
b100000 O
b1000 N
b1000000 B
b1000000 A
b1000 @
b1000 8
b1001000010010010100011101001000010111110101000001000101010100100100011001001111010100100100110101000001010011100100001101000101 7
b1000000000000 6
b111010101110100011010010110110000101111011010010110110101100001011001110110010100101110011011010110010101101101 5
b1000000 ,
b1000000 +
b1000 *
$end
#0
$dumpvars
xR
bx Q
bx P
b0 M
b0 L
bx K
xJ
bx I
b0 H
b0 G
bx F
b0 E
b0 D
0C
bx ?
b0 >
bx =
b0 <
b0 ;
bx :
b0 9
b0 4
b0 3
02
11
b0 0
0/
0.
0-
b0 )
b0 (
b0 '
bx &
b0 %
x$
0#
bx "
x!
$end
#5000
0R
0!
1-
#10000
0-
1.
#15000
b0 "
b0 =
b0 P
b0 &
b0 ?
b0 Q
1-
#20000
0.
1-
#25000
0-
#30000
1$
1C
1-
1/
#35000
0-
#40000
b11111110 9
bx1 F
0$
1-
0/
#45000
0-
#50000
b10 F
b11111110 '
b11111110 3
b11111110 <
b11111110 ;
1-
#55000
0-
#60000
b1 %
b1 4
b1 >
b0 F
1$
b1 D
b11111110 I
b11111110 K
1J
1-
#65000
0-
#70000
0J
0$
b1 F
1R
1!
b11111110 &
b11111110 ?
b11111110 Q
1-
#75000
0-
#80000
0R
0!
b10 F
1-
#85000
0-
#90000
b10 %
b10 4
b10 >
1$
b10 D
b1 )
b1 G
b1 L
1J
b0 F
1-
#95000
0-
#100000
1R
b1 F
0J
0$
1-
#105000
0-
#110000
b10 F
0R
1-
#115000
0-
#120000
b11 %
b11 4
b11 >
b0 F
1$
b11 D
b10 )
b10 G
b10 L
1J
1-
#125000
0-
#130000
0J
0$
b1 F
1R
1!
b1 "
b1 =
b1 P
1-
#135000
0-
#140000
0R
0!
b10 F
1-
#145000
0-
#150000
b100 %
b100 4
b100 >
1$
b100 D
b11 )
b11 G
b11 L
1J
b0 F
1-
#155000
0-
#160000
1R
b1 F
0J
0$
1-
#165000
0-
#170000
b10 F
0R
1-
#175000
0-
#180000
b101 %
b101 4
b101 >
b0 F
1$
b101 D
b100 )
b100 G
b100 L
1J
1-
#185000
0-
#190000
0J
0$
b1 F
1R
1!
b10 "
b10 =
b10 P
1-
#195000
0-
#200000
0R
0!
b10 F
1-
#205000
0-
#210000
b110 %
b110 4
b110 >
1$
b110 D
b101 )
b101 G
b101 L
1J
b0 F
1-
#215000
0-
#220000
1R
b1 F
0J
0$
1-
#225000
0-
#230000
b10 F
0R
1-
#235000
0-
#240000
b111 %
b111 4
b111 >
b0 F
1$
b111 D
b110 )
b110 G
b110 L
1J
1-
#245000
0-
#250000
0J
0$
b1 F
1R
1!
b11 "
b11 =
b11 P
1-
#255000
0-
#260000
0R
0!
b10 F
1-
#265000
0-
#270000
b1000 %
b1000 4
b1000 >
1$
b1000 D
b111 )
b111 G
b111 L
1J
b0 F
1-
#275000
0-
#280000
1R
b1 F
0J
0$
1-
#285000
0-
#290000
b10 F
0R
1-
#295000
0-
#300000
b1001 %
b1001 4
b1001 >
b0 F
1$
b1001 D
b1000 )
b1000 G
b1000 L
1J
1-
#305000
0-
#310000
0J
0$
b1 F
1R
1!
b100 "
b100 =
b100 P
1-
#315000
0-
#320000
0R
0!
b10 F
1-
#325000
0-
#330000
b1010 %
b1010 4
b1010 >
1$
b1010 D
b1001 )
b1001 G
b1001 L
1J
b0 F
1-
#335000
0-
#340000
1R
b1 F
0J
0$
1-
#345000
0-
#350000
b10 F
0R
1-
#355000
0-
#360000
b1011 %
b1011 4
b1011 >
b0 F
1$
b1011 D
b1010 )
b1010 G
b1010 L
1J
1-
#365000
0-
#370000
0J
0$
b1 F
1R
1!
b101 "
b101 =
b101 P
1-
#375000
0-
#380000
0R
0!
b10 F
1-
#385000
0-
#390000
b1100 %
b1100 4
b1100 >
1$
b1100 D
b1011 )
b1011 G
b1011 L
1J
b0 F
1-
#395000
0-
#400000
1R
b1 F
0J
0$
1-
#405000
0-
#410000
b10 F
0R
1-
#415000
0-
#420000
b1101 %
b1101 4
b1101 >
b0 F
1$
b1101 D
b1100 )
b1100 G
b1100 L
1J
1-
#425000
0-
#430000
0J
0$
b1 F
1R
1!
b110 "
b110 =
b110 P
1-
#435000
0-
#440000
0R
0!
b10 F
1-
#445000
0-
#450000
b1110 %
b1110 4
b1110 >
1$
b1110 D
b1101 )
b1101 G
b1101 L
1J
b0 F
1-
#455000
0-
#460000
1R
b1 F
0J
0$
1-
#465000
0-
#470000
b10 F
0R
1-
#475000
0-
#480000
b1111 %
b1111 4
b1111 >
b0 F
1$
b1111 D
b1110 )
b1110 G
b1110 L
1J
1-
#485000
0-
#490000
0J
0$
b1 F
1R
1!
b111 "
b111 =
b111 P
1-
#495000
0-
#500000
0R
0!
b10 F
1-
#505000
0-
#510000
b10000 %
b10000 4
b10000 >
1$
b10000 D
b1111 )
b1111 G
b1111 L
1J
b0 F
1-
#515000
0-
#520000
1R
b1 F
0J
0$
1-
#525000
0-
#530000
b10 F
0R
1-
#535000
0-
#540000
b10001 %
b10001 4
b10001 >
b0 F
1$
b10001 D
b10000 )
b10000 G
b10000 L
1J
1-
#545000
0-
#550000
0J
0$
b1 F
1R
1!
b1000 "
b1000 =
b1000 P
1-
#555000
0-
#560000
0R
0!
b10 F
1-
#565000
0-
#570000
b10010 %
b10010 4
b10010 >
1$
b10010 D
b10001 )
b10001 G
b10001 L
1J
b0 F
1-
#575000
0-
#580000
1R
b1 F
0J
0$
1-
#585000
0-
#590000
b10 F
0R
1-
#595000
0-
#600000
b10011 %
b10011 4
b10011 >
b0 F
1$
b10011 D
b10010 )
b10010 G
b10010 L
1J
1-
#605000
0-
#610000
0J
0$
b1 F
1R
1!
b1001 "
b1001 =
b1001 P
1-
#615000
0-
#620000
0R
0!
b10 F
1-
#625000
0-
#630000
b10100 %
b10100 4
b10100 >
1$
b10100 D
b10011 )
b10011 G
b10011 L
1J
b0 F
1-
#635000
0-
#640000
1R
b1 F
0J
0$
1-
#645000
0-
#650000
b10 F
0R
1-
#655000
0-
#660000
b10101 %
b10101 4
b10101 >
b0 F
1$
b10101 D
b10100 )
b10100 G
b10100 L
1J
1-
#665000
0-
#670000
0J
0$
b1 F
1R
1!
b1010 "
b1010 =
b1010 P
1-
#675000
0-
#680000
0R
0!
b10 F
1-
#685000
0-
#690000
b10110 %
b10110 4
b10110 >
1$
b10110 D
b10101 )
b10101 G
b10101 L
1J
b0 F
1-
#695000
0-
#700000
1R
b1 F
0J
0$
1-
#705000
0-
#710000
b10 F
0R
1-
#715000
0-
#720000
b10111 %
b10111 4
b10111 >
b0 F
1$
b10111 D
b10110 )
b10110 G
b10110 L
1J
1-
#725000
0-
#730000
0J
0$
b1 F
1R
1!
b1011 "
b1011 =
b1011 P
1-
#735000
0-
#740000
0R
0!
b10 F
1-
#745000
0-
#750000
b11000 %
b11000 4
b11000 >
1$
b11000 D
b10111 )
b10111 G
b10111 L
1J
b0 F
1-
#755000
0-
#760000
1R
b1 F
0J
0$
1-
#765000
0-
#770000
b10 F
0R
1-
#775000
0-
#780000
b11001 %
b11001 4
b11001 >
b0 F
1$
b11001 D
b11000 )
b11000 G
b11000 L
1J
1-
#785000
0-
#790000
0J
0$
b1 F
1R
1!
b1100 "
b1100 =
b1100 P
1-
#795000
0-
#800000
0R
0!
b10 F
1-
#805000
0-
#810000
b11010 %
b11010 4
b11010 >
1$
b11010 D
b11001 )
b11001 G
b11001 L
1J
b0 F
1-
#815000
0-
#820000
1R
b1 F
0J
0$
1-
#825000
0-
#830000
b10 F
0R
1-
#835000
0-
#840000
b11011 %
b11011 4
b11011 >
b0 F
1$
b11011 D
b11010 )
b11010 G
b11010 L
1J
1-
#845000
0-
#850000
0J
0$
b1 F
1R
1!
b1101 "
b1101 =
b1101 P
1-
#855000
0-
#860000
0R
0!
b10 F
1-
#865000
0-
#870000
b11100 %
b11100 4
b11100 >
1$
b11100 D
b11011 )
b11011 G
b11011 L
1J
b0 F
1-
#875000
0-
#880000
1R
b1 F
0J
0$
1-
#885000
0-
#890000
b10 F
0R
1-
#895000
0-
#900000
b11101 %
b11101 4
b11101 >
b0 F
1$
b11101 D
b11100 )
b11100 G
b11100 L
1J
1-
#905000
0-
#910000
0J
0$
b1 F
1R
1!
b1110 "
b1110 =
b1110 P
1-
#915000
0-
#920000
0R
0!
b10 F
1-
#925000
0-
#930000
b11110 %
b11110 4
b11110 >
1$
b11110 D
b11101 )
b11101 G
b11101 L
1J
b0 F
1-
#935000
0-
#940000
b11110010 9
1R
b1 F
0J
0$
1-
#945000
0-
#950000
b10 F
0R
b11110010 '
b11110010 3
b11110010 <
b11110010 ;
1-
#955000
0-
#960000
b11111 %
b11111 4
b11111 >
b0 F
1$
b11111 D
b11110 )
b11110 G
b11110 L
b11110010 I
b11110010 K
1J
1-
#965000
0-
#970000
0J
0$
b1 F
1R
1!
b1111 "
b1111 =
b1111 P
b11110010 &
b11110010 ?
b11110010 Q
b11111110 9
1-
#975000
0-
#980000
b11111110 '
b11111110 3
b11111110 <
b11111110 ;
0R
0!
b10 F
1-
#985000
0-
#990000
b100000 %
b100000 4
b100000 >
1$
b100000 D
b11111 )
b11111 G
b11111 L
b11111110 I
b11111110 K
1J
b0 F
1-
#995000
0-
#1000000
1R
b1 F
0J
0$
1-
#1005000
0-
#1010000
b10 F
0R
1-
#1015000
0-
#1020000
b100001 %
b100001 4
b100001 >
b0 F
1$
b100001 D
b100000 )
b100000 G
b100000 L
1J
1-
#1025000
0-
#1030000
0J
0$
b1 F
1R
1!
b10000 "
b10000 =
b10000 P
b11111110 &
b11111110 ?
b11111110 Q
1-
#1035000
0-
#1040000
0R
0!
b10 F
1-
#1045000
0-
#1050000
b100010 %
b100010 4
b100010 >
1$
b100010 D
b100001 )
b100001 G
b100001 L
1J
b0 F
1-
#1055000
0-
#1060000
1R
b1 F
0J
0$
1-
#1065000
0-
#1070000
b10 F
0R
1-
#1075000
0-
#1080000
b100011 %
b100011 4
b100011 >
b0 F
1$
b100011 D
b100010 )
b100010 G
b100010 L
1J
1-
#1085000
0-
#1090000
0J
0$
b1 F
1R
1!
b10001 "
b10001 =
b10001 P
1-
#1095000
0-
#1100000
0R
0!
b10 F
1-
#1105000
0-
#1110000
b100100 %
b100100 4
b100100 >
1$
b100100 D
b100011 )
b100011 G
b100011 L
1J
b0 F
1-
#1115000
0-
#1120000
1R
b1 F
0J
0$
1-
#1125000
0-
#1130000
b10 F
0R
1-
#1135000
0-
#1140000
b100101 %
b100101 4
b100101 >
b0 F
1$
b100101 D
b100100 )
b100100 G
b100100 L
1J
1-
#1145000
0-
#1150000
0J
0$
b1 F
1R
1!
b10010 "
b10010 =
b10010 P
1-
#1155000
0-
#1160000
0R
0!
b10 F
1-
#1165000
0-
#1170000
b100110 %
b100110 4
b100110 >
1$
b100110 D
b100101 )
b100101 G
b100101 L
1J
b0 F
1-
#1175000
0-
#1180000
b11111101 9
1R
b1 F
0J
0$
1-
#1185000
0-
#1190000
b10 F
0R
b11111101 '
b11111101 3
b11111101 <
b11111101 ;
1-
#1195000
0-
#1200000
b100111 %
b100111 4
b100111 >
b0 F
1$
b100111 D
b100110 )
b100110 G
b100110 L
b11111101 I
b11111101 K
1J
1-
#1205000
0-
#1210000
0J
0$
b1 F
1R
1!
b10011 "
b10011 =
b10011 P
b11111101 &
b11111101 ?
b11111101 Q
b11111110 9
1-
#1215000
0-
#1220000
b11111110 '
b11111110 3
b11111110 <
b11111110 ;
0R
0!
b10 F
1-
#1225000
0-
#1230000
b101000 %
b101000 4
b101000 >
1$
b101000 D
b100111 )
b100111 G
b100111 L
b11111110 I
b11111110 K
1J
b0 F
1-
#1235000
0-
#1240000
1R
b1 F
0J
0$
1-
#1245000
0-
#1250000
b10 F
0R
1-
#1255000
0-
#1260000
b101001 %
b101001 4
b101001 >
b0 F
1$
b101001 D
b101000 )
b101000 G
b101000 L
1J
1-
#1265000
0-
#1270000
0J
0$
b1 F
1R
1!
b10100 "
b10100 =
b10100 P
b11111110 &
b11111110 ?
b11111110 Q
1-
#1275000
0-
#1280000
0R
0!
b10 F
1-
#1285000
0-
#1290000
b101010 %
b101010 4
b101010 >
1$
b101010 D
b101001 )
b101001 G
b101001 L
1J
b0 F
1-
#1295000
0-
#1300000
1R
b1 F
0J
0$
1-
#1305000
0-
#1310000
b10 F
0R
1-
#1315000
0-
#1320000
b101011 %
b101011 4
b101011 >
b0 F
1$
b101011 D
b101010 )
b101010 G
b101010 L
1J
1-
#1325000
0-
#1330000
0J
0$
b1 F
1R
1!
b10101 "
b10101 =
b10101 P
1-
#1335000
0-
#1340000
0R
0!
b10 F
1-
#1345000
0-
#1350000
b101100 %
b101100 4
b101100 >
1$
b101100 D
b101011 )
b101011 G
b101011 L
1J
b0 F
1-
#1355000
0-
#1360000
1R
b1 F
0J
0$
1-
#1365000
0-
#1370000
b10 F
0R
1-
#1375000
0-
#1380000
b101101 %
b101101 4
b101101 >
b0 F
1$
b101101 D
b101100 )
b101100 G
b101100 L
1J
1-
#1385000
0-
#1390000
0J
0$
b1 F
1R
1!
b10110 "
b10110 =
b10110 P
1-
#1395000
0-
#1400000
0R
0!
b10 F
1-
#1405000
0-
#1410000
b101110 %
b101110 4
b101110 >
1$
b101110 D
b101101 )
b101101 G
b101101 L
1J
b0 F
1-
#1415000
0-
#1420000
1R
b1 F
0J
0$
1-
#1425000
0-
#1430000
b10 F
0R
1-
#1435000
0-
#1440000
b101111 %
b101111 4
b101111 >
b0 F
1$
b101111 D
b101110 )
b101110 G
b101110 L
1J
1-
#1445000
0-
#1450000
0J
0$
b1 F
1R
1!
b10111 "
b10111 =
b10111 P
1-
#1455000
0-
#1460000
0R
0!
b10 F
1-
#1465000
0-
#1470000
b110000 %
b110000 4
b110000 >
1$
b110000 D
b101111 )
b101111 G
b101111 L
1J
b0 F
1-
#1475000
0-
#1480000
1R
b1 F
0J
0$
1-
#1485000
0-
#1490000
b10 F
0R
1-
#1495000
0-
#1500000
b110001 %
b110001 4
b110001 >
b0 F
1$
b110001 D
b110000 )
b110000 G
b110000 L
1J
1-
#1505000
0-
#1510000
0J
0$
b1 F
1R
1!
b11000 "
b11000 =
b11000 P
1-
#1515000
0-
#1520000
0R
0!
b10 F
1-
#1525000
0-
#1530000
b110010 %
b110010 4
b110010 >
1$
b110010 D
b110001 )
b110001 G
b110001 L
1J
b0 F
1-
#1535000
0-
#1540000
1R
b1 F
0J
0$
1-
#1545000
0-
#1550000
b10 F
0R
1-
#1555000
0-
#1560000
b110011 %
b110011 4
b110011 >
b0 F
1$
b110011 D
b110010 )
b110010 G
b110010 L
1J
1-
#1565000
0-
#1570000
0J
0$
b1 F
1R
1!
b11001 "
b11001 =
b11001 P
1-
#1575000
0-
#1580000
0R
0!
b10 F
1-
#1585000
0-
#1590000
b110100 %
b110100 4
b110100 >
1$
b110100 D
b110011 )
b110011 G
b110011 L
1J
b0 F
1-
#1595000
0-
#1600000
1R
b1 F
0J
0$
1-
#1605000
0-
#1610000
b10 F
0R
1-
#1615000
0-
#1620000
b110101 %
b110101 4
b110101 >
b0 F
1$
b110101 D
b110100 )
b110100 G
b110100 L
1J
1-
#1625000
0-
#1630000
0J
0$
b1 F
1R
1!
b11010 "
b11010 =
b11010 P
1-
#1635000
0-
#1640000
0R
0!
b10 F
1-
#1645000
0-
#1650000
b110110 %
b110110 4
b110110 >
1$
b110110 D
b110101 )
b110101 G
b110101 L
1J
b0 F
1-
#1655000
0-
#1660000
1R
b1 F
0J
0$
1-
#1665000
0-
#1670000
b10 F
0R
1-
#1675000
0-
#1680000
b110111 %
b110111 4
b110111 >
b0 F
1$
b110111 D
b110110 )
b110110 G
b110110 L
1J
1-
#1685000
0-
#1690000
0J
0$
b1 F
1R
1!
b11011 "
b11011 =
b11011 P
1-
#1695000
0-
#1700000
0R
0!
b10 F
1-
#1705000
0-
#1710000
b111000 %
b111000 4
b111000 >
1$
b111000 D
b110111 )
b110111 G
b110111 L
1J
b0 F
1-
#1715000
0-
#1720000
1R
b1 F
0J
0$
1-
#1725000
0-
#1730000
b10 F
0R
1-
#1735000
0-
#1740000
b111001 %
b111001 4
b111001 >
b0 F
1$
b111001 D
b111000 )
b111000 G
b111000 L
1J
1-
#1745000
0-
#1750000
0J
0$
b1 F
1R
1!
b11100 "
b11100 =
b11100 P
1-
#1755000
0-
#1760000
0R
0!
b10 F
1-
#1765000
0-
#1770000
b111010 %
b111010 4
b111010 >
1$
b111010 D
b111001 )
b111001 G
b111001 L
1J
b0 F
1-
#1775000
0-
#1780000
1R
b1 F
0J
0$
1-
#1785000
0-
#1790000
b10 F
0R
1-
#1795000
0-
#1800000
b111011 %
b111011 4
b111011 >
b0 F
1$
b111011 D
b111010 )
b111010 G
b111010 L
1J
1-
#1805000
0-
#1810000
0J
0$
b1 F
1R
1!
b11101 "
b11101 =
b11101 P
1-
#1815000
0-
#1820000
0R
0!
b10 F
1-
#1825000
0-
#1830000
b111100 %
b111100 4
b111100 >
1$
b111100 D
b111011 )
b111011 G
b111011 L
1J
b0 F
1-
#1835000
0-
#1840000
1R
b1 F
0J
0$
1-
#1845000
0-
#1850000
b10 F
0R
1-
#1855000
0-
#1860000
b111101 %
b111101 4
b111101 >
b0 F
1$
b111101 D
b111100 )
b111100 G
b111100 L
1J
1-
#1865000
0-
#1870000
0J
0$
b1 F
1R
1!
b11110 "
b11110 =
b11110 P
1-
#1875000
0-
#1880000
0R
0!
b10 F
1-
#1885000
0-
#1890000
b111110 %
b111110 4
b111110 >
1$
b111110 D
b111101 )
b111101 G
b111101 L
1J
b0 F
1-
#1895000
0-
#1900000
1R
b1 F
0J
0$
1-
#1905000
0-
#1910000
b10 F
0R
1-
#1915000
0-
#1920000
b111111 %
b111111 4
b111111 >
b0 F
1$
b111111 D
b111110 )
b111110 G
b111110 L
1J
1-
#1925000
0-
#1930000
0J
0$
b1 F
1R
1!
b11111 "
b11111 =
b11111 P
1-
#1935000
0-
#1940000
0R
0!
b10 F
1-
#1945000
0-
#1950000
b1000000 %
b1000000 4
b1000000 >
1$
b1 E
b0 D
b111111 )
b111111 G
b111111 L
1J
b0 F
1-
#1955000
0-
#1960000
1R
b1 F
0J
0$
1-
#1965000
0-
#1970000
b10 F
0R
1-
#1975000
0-
#1980000
b1000001 %
b1000001 4
b1000001 >
b0 F
1$
b1 D
b1 (
b1 H
b1 M
b0 )
b0 G
b0 L
1J
1-
#1985000
0-
#1990000
0J
0$
b1 F
1R
1-
#1995000
0-
#2000000
0R
b10 F
1-
#2005000
0-
#2010000
b1000010 %
b1000010 4
b1000010 >
1$
b10 D
b1 )
b1 G
b1 L
1J
b0 F
1-
#2015000
0-
#2020000
1R
b1 F
0J
0$
1-
#2025000
0-
#2030000
b10 F
0R
1-
#2035000
0-
#2040000
b1000011 %
b1000011 4
b1000011 >
b0 F
1$
b11 D
b10 )
b10 G
b10 L
1J
1-
#2045000
0-
#2050000
0J
0$
b1 F
1R
1-
#2055000
0-
#2060000
0R
b10 F
1-
#2065000
0-
#2070000
b1000100 %
b1000100 4
b1000100 >
1$
b100 D
b11 )
b11 G
b11 L
1J
b0 F
1-
#2075000
0-
#2080000
1R
b1 F
0J
0$
1-
#2085000
0-
#2090000
b10 F
0R
1-
#2095000
0-
#2100000
b1000101 %
b1000101 4
b1000101 >
b0 F
1$
b101 D
b100 )
b100 G
b100 L
1J
1-
#2105000
0-
#2110000
0J
0$
b1 F
1R
1-
#2115000
0-
#2120000
0R
b10 F
1-
#2125000
0-
#2130000
b1000110 %
b1000110 4
b1000110 >
1$
b110 D
b101 )
b101 G
b101 L
1J
b0 F
1-
#2135000
0-
#2140000
1R
b1 F
0J
0$
1-
#2145000
0-
#2150000
b10 F
0R
1-
#2155000
0-
#2160000
b1000111 %
b1000111 4
b1000111 >
b0 F
1$
b111 D
b110 )
b110 G
b110 L
1J
1-
#2165000
0-
#2170000
0J
0$
b1 F
1R
1-
#2175000
0-
#2180000
0R
b10 F
1-
#2185000
0-
#2190000
b1001000 %
b1001000 4
b1001000 >
1$
b1000 D
b111 )
b111 G
b111 L
1J
b0 F
1-
#2195000
0-
#2200000
1R
b1 F
0J
0$
1-
#2205000
0-
#2210000
b10 F
0R
1-
#2215000
0-
#2220000
b1001001 %
b1001001 4
b1001001 >
b0 F
1$
b1001 D
b1000 )
b1000 G
b1000 L
1J
1-
#2225000
0-
#2230000
0J
0$
b1 F
1R
1-
#2235000
0-
#2240000
0R
b10 F
1-
#2245000
0-
#2250000
b1001010 %
b1001010 4
b1001010 >
1$
b1010 D
b1001 )
b1001 G
b1001 L
1J
b0 F
1-
#2255000
0-
#2260000
1R
b1 F
0J
0$
1-
#2265000
0-
#2270000
b10 F
0R
1-
#2275000
0-
#2280000
b1001011 %
b1001011 4
b1001011 >
b0 F
1$
b1011 D
b1010 )
b1010 G
b1010 L
1J
1-
#2285000
0-
#2290000
0J
0$
b1 F
1R
1-
#2295000
0-
#2300000
0R
b10 F
1-
#2305000
0-
#2310000
b1001100 %
b1001100 4
b1001100 >
1$
b1100 D
b1011 )
b1011 G
b1011 L
1J
b0 F
1-
#2315000
0-
#2320000
1R
b1 F
0J
0$
1-
#2325000
0-
#2330000
b10 F
0R
1-
#2335000
0-
#2340000
b1001101 %
b1001101 4
b1001101 >
b0 F
1$
b1101 D
b1100 )
b1100 G
b1100 L
1J
1-
#2345000
0-
#2350000
0J
0$
b1 F
1R
1-
#2355000
0-
#2360000
0R
b10 F
1-
#2365000
0-
#2370000
b1001110 %
b1001110 4
b1001110 >
1$
b1110 D
b1101 )
b1101 G
b1101 L
1J
b0 F
1-
#2375000
0-
#2380000
1R
b1 F
0J
0$
1-
#2385000
0-
#2390000
b10 F
0R
1-
#2395000
0-
#2400000
b1001111 %
b1001111 4
b1001111 >
b0 F
1$
b1111 D
b1110 )
b1110 G
b1110 L
1J
1-
#2405000
0-
#2410000
0J
0$
b1 F
1R
1-
#2415000
0-
#2420000
0R
b10 F
1-
#2425000
0-
#2430000
b1010000 %
b1010000 4
b1010000 >
1$
b10000 D
b1111 )
b1111 G
b1111 L
1J
b0 F
1-
#2435000
0-
#2440000
1R
b1 F
0J
0$
1-
#2445000
0-
#2450000
b10 F
0R
1-
#2455000
0-
#2460000
b1010001 %
b1010001 4
b1010001 >
b0 F
1$
b10001 D
b10000 )
b10000 G
b10000 L
1J
1-
#2465000
0-
#2470000
0J
0$
b1 F
1R
1-
#2475000
0-
#2480000
0R
b10 F
1-
#2485000
0-
#2490000
b1010010 %
b1010010 4
b1010010 >
1$
b10010 D
b10001 )
b10001 G
b10001 L
1J
b0 F
1-
#2495000
0-
#2500000
1R
b1 F
0J
0$
1-
#2505000
0-
#2510000
b10 F
0R
1-
#2515000
0-
#2520000
b1010011 %
b1010011 4
b1010011 >
b0 F
1$
b10011 D
b10010 )
b10010 G
b10010 L
1J
1-
#2525000
0-
#2530000
0J
0$
b1 F
1R
1-
#2535000
0-
#2540000
0R
b10 F
1-
#2545000
0-
#2550000
b1010100 %
b1010100 4
b1010100 >
1$
b10100 D
b10011 )
b10011 G
b10011 L
1J
b0 F
1-
#2555000
0-
#2560000
1R
b1 F
0J
0$
1-
#2565000
0-
#2570000
b10 F
0R
1-
#2575000
0-
#2580000
b1010101 %
b1010101 4
b1010101 >
b0 F
1$
b10101 D
b10100 )
b10100 G
b10100 L
1J
1-
#2585000
0-
#2590000
0J
0$
b1 F
1R
1-
#2595000
0-
#2600000
0R
b10 F
1-
#2605000
0-
#2610000
b1010110 %
b1010110 4
b1010110 >
1$
b10110 D
b10101 )
b10101 G
b10101 L
1J
b0 F
1-
#2615000
0-
#2620000
1R
b1 F
0J
0$
1-
#2625000
0-
#2630000
b10 F
0R
1-
#2635000
0-
#2640000
b1010111 %
b1010111 4
b1010111 >
b0 F
1$
b10111 D
b10110 )
b10110 G
b10110 L
1J
1-
#2645000
0-
#2650000
0J
0$
b1 F
1R
1-
#2655000
0-
#2660000
0R
b10 F
1-
#2665000
0-
#2670000
b1011000 %
b1011000 4
b1011000 >
1$
b11000 D
b10111 )
b10111 G
b10111 L
1J
b0 F
1-
#2675000
0-
#2680000
1R
b1 F
0J
0$
1-
#2685000
0-
#2690000
b10 F
0R
1-
#2695000
0-
#2700000
b1011001 %
b1011001 4
b1011001 >
b0 F
1$
b11001 D
b11000 )
b11000 G
b11000 L
1J
1-
#2705000
0-
#2710000
0J
0$
b1 F
1R
1-
#2715000
0-
#2720000
0R
b10 F
1-
#2725000
0-
#2730000
b1011010 %
b1011010 4
b1011010 >
1$
b11010 D
b11001 )
b11001 G
b11001 L
1J
b0 F
1-
#2735000
0-
#2740000
1R
b1 F
0J
0$
1-
#2745000
0-
#2750000
b10 F
0R
1-
#2755000
0-
#2760000
b1011011 %
b1011011 4
b1011011 >
b0 F
1$
b11011 D
b11010 )
b11010 G
b11010 L
1J
1-
#2765000
0-
#2770000
0J
0$
b1 F
1R
1-
#2775000
0-
#2780000
0R
b10 F
1-
#2785000
0-
#2790000
b1011100 %
b1011100 4
b1011100 >
1$
b11100 D
b11011 )
b11011 G
b11011 L
1J
b0 F
1-
#2795000
0-
#2800000
1R
b1 F
0J
0$
1-
#2805000
0-
#2810000
b10 F
0R
1-
#2815000
0-
#2820000
b1011101 %
b1011101 4
b1011101 >
b0 F
1$
b11101 D
b11100 )
b11100 G
b11100 L
1J
1-
#2825000
0-
#2830000
0J
0$
b1 F
1R
b11011001 9
1-
#2835000
0-
#2840000
b11011001 '
b11011001 3
b11011001 <
b11011001 ;
0R
b10 F
1-
#2845000
0-
#2850000
b1011110 %
b1011110 4
b1011110 >
1$
b11110 D
b11101 )
b11101 G
b11101 L
b11011001 I
b11011001 K
1J
b0 F
1-
#2855000
0-
#2860000
b10001110 9
1R
b1 F
0J
0$
1-
#2865000
0-
#2870000
b10 F
0R
b10001110 '
b10001110 3
b10001110 <
b10001110 ;
1-
#2875000
0-
#2880000
b1011111 %
b1011111 4
b1011111 >
b0 F
1$
b11111 D
b11110 )
b11110 G
b11110 L
b10001110 I
b10001110 K
1J
1-
#2885000
0-
#2890000
0J
0$
b1 F
1R
b11100001 9
1-
#2895000
0-
#2900000
b11100001 '
b11100001 3
b11100001 <
b11100001 ;
0R
b10 F
1-
#2905000
0-
#2910000
b1100000 %
b1100000 4
b1100000 >
1$
b100000 D
b11111 )
b11111 G
b11111 L
b11100001 I
b11100001 K
1J
b0 F
1-
#2915000
0-
#2920000
b11111110 9
1R
b1 F
0J
0$
1-
#2925000
0-
#2930000
b10 F
0R
b11111110 '
b11111110 3
b11111110 <
b11111110 ;
1-
#2935000
0-
#2940000
b1100001 %
b1100001 4
b1100001 >
b0 F
1$
b100001 D
b100000 )
b100000 G
b100000 L
b11111110 I
b11111110 K
1J
1-
#2945000
0-
#2950000
0J
0$
b1 F
1R
1-
#2955000
0-
#2960000
0R
b10 F
1-
#2965000
0-
